# ANNGlobalPID__ChargedProtoANNPIDAlg
# ANNGlobalPID__ChargedProtoANNPIDMoni
# ANNGlobalPID__ChargedProtoANNPIDTool
# ANNGlobalPID__ChargedProtoANNPIDTrainingTuple
# ANNGlobalPID__ChargedProtoANNPIDTupleTool
# ATrackSelector
# AbortEventAlg
# AdaptivePV3DFitter
# AdaptivePVReFitter
# AddExtraInfo
# AddRelatedInfo
# AddToProcStatus
# AddressKillerAlg
# Aida2Root
# AlRobustAlignAlg
# Al__AlignChisqConstraintTool
# Al__AlignConstraintTool
# Al__AlignUpdateTool
# Al__TrackResidualTool
# Al__VertexResidualTool
# AlgContextAuditor
# AlgContextSvc
# AlgErrorAuditor
# AlgExecStateSvc
# AlgResourcePool
# AlgorithmCorrelations
# AlgorithmCorrelationsAlg
# AlignAlgorithm
# AlignMuonRec
# AlignSaveTuple
# AlignSelTool
# AlignSensors
# AlignTrTools
# AlignTrackMonitor
# AlignmentOnlineMonitor
# AllTrackGhostClassification
# AnalyticFieldSvc
# AnyDataGetAlgorithm_Int
# AnyDataGetAlgorithm_VectorInt
# AnyDataPutAlgorithm
# AppMgrRunable
# ApplicationMgr
# ApplicationVersionFilter
# AuditorSvc
# AuditorTestAlg
# BBDTSimpleTool
# BBDecTreeTool
# BIntegrator
# BTagging
# BTaggingTool
# BasicDQFilter
# BdlTool
# BeamGasVertexMonitor
# BestPIDParticleMaker
# BestPVAlg
# BestPVAlg2
# BremAdder
# BremChi22ID
# BremMatchAlg
# BremPIDeAlg
# CKThetaResolutionConfig
# CLHEPSolver
# CLTool
# COOLConfSvc
# CPUCruncher
# CallgrindProfile
# Calo2Calo
# Calo2MCTool
# CaloAdcFromRaw
# CaloAlignmentNtp
# CaloAssociatorsConf
# CaloBremMatch
# CaloChi22ID
# CaloClusterChecker
# CaloClusterCorrect3x3Position
# CaloClusterCovarianceAlg
# CaloClusterMCTruth
# CaloClusterMatchMonitor
# CaloClusterMonitor
# CaloClusterizationTool
# CaloCorrectionBase
# CaloCosmicsTool
# CaloCosmicsTrackAlg
# CaloCosmicsTrackTool
# CaloDataProvider
# CaloDataProviderFromTES
# CaloDetTestAlgorithm
# CaloDigit2MCLinks2Table
# CaloDigitConf
# CaloDigitFilterAlg
# CaloDigitFilterTool
# CaloDigitMCTruth
# CaloDigitMonitor
# CaloDigitsFilterAlg
# CaloDigitsFromRaw
# CaloDstPackConf
# CaloDstUnPackConf
# CaloECorrection
# CaloEFlowAlg
# CaloEMuPIDMon
# CaloElectron
# CaloElectronAlg
# CaloElectronMatch
# CaloElectronNtp
# CaloEnergyForTrack
# CaloEnergyFromRaw
# CaloExtraDigits
# CaloFillPrsSpdRawBuffer
# CaloFillRawBuffer
# CaloGECFilter
# CaloGetterInit
# CaloGetterTool
# CaloHypo2Calo
# CaloHypoAlg
# CaloHypoEstimator
# CaloHypoMCTruth
# CaloHypoMatchMonitor
# CaloHypoMonitor
# CaloHypoNtp
# CaloID2DLL
# CaloL0DataProvider
# CaloLCorrection
# CaloLines
# CaloMergeTAE
# CaloMergedPi0
# CaloMoniDstConf
# CaloPIDsChecker
# CaloPIDsConf
# CaloPhotonChecker
# CaloPhotonIdAlg
# CaloPhotonMatch
# CaloPi0Checker
# CaloPi0Monitor
# CaloPi0Ntp
# CaloProcessor
# CaloProtoElectronMonitor
# CaloReCreateMCLinks
# CaloReadoutTool
# CaloRecoConf
# CaloRelationsGetter
# CaloSCorrection
# CaloSelectChargedClusterWithSpd
# CaloSelectCluster
# CaloSelectClusterWithPrs
# CaloSelectNeutralClusterWithSpd
# CaloSelectNeutralClusterWithTracks
# CaloSelector
# CaloSelectorAND
# CaloSelectorNOT
# CaloSelectorOR
# CaloSharedCellAlg
# CaloShowerOverlap
# CaloShowerOverlapTool
# CaloSinglePhotonAlg
# CaloTrack2IDAlg
# CaloTriggerAdcsFromCaloRaw
# CaloTriggerAdcsFromRaw
# CaloTriggerAdcsFromRawAlg
# CaloTriggerBitsFromRaw
# CaloTriggerBitsFromRawAlg
# CaloZSupAlg
# CellularAutomatonAlg
# Centipede
# ChargedParticlesToTracks
# ChargedProtoANNPIDConf
# ChargedProtoCombineDLLsAlg
# ChargedProtoParticleAddBremInfo
# ChargedProtoParticleAddEcalInfo
# ChargedProtoParticleAddHcalInfo
# ChargedProtoParticleAddMuonInfo
# ChargedProtoParticleAddPrsInfo
# ChargedProtoParticleAddRichInfo
# ChargedProtoParticleAddSpdInfo
# ChargedProtoParticleAddVeloInfo
# ChargedProtoParticleDLLFilter
# ChargedProtoParticleMaker
# ChargedProtoParticleMapper
# ChargedProtoParticleMoni
# ChargedProtoParticleRemovePIDInfo
# ChargedProtoParticleTupleAlg
# CheatedPrimaryVertices
# CheckCaloBank
# CheckCaloHypoRef
# CheckMCEventTool
# CheckOverlap
# CheckPV
# CheckSelResult
# CheckSelResultsTool
# CheckVeloOverlap
# Chi2MuIDTool
# ChronoAuditor
# ChronoStatSvc
# CleanPatTrackSelector
# ClearDaughters
# ClusChi22ID
# ClusterCovarianceMatrixTool
# ClusterSpreadTool
# CollectionCloneAlg
# ColorMsgAlg
# CombineParticles
# CombineTaggersNN
# CombineTaggersOSTDR
# CombineTaggersPID
# CombineTaggersProbability
# CombineTaggersTDR
# CombinedParticleMaker
# CommonMuonHitManager
# CommonMuonTool
# CompareCaloDigits
# CompareCaloHypo
# CompareMCParticle
# CompareMCVertex
# CompareProtoParticle
# CompareRecVertex
# CompareTrack
# CompareTwoProngVertex
# CondDB
# CondDBAccessSvc
# CondDBCnvSvc
# CondDBDQScanner
# CondDBDispatcherSvc
# CondDBEntityResolver
# CondDBLayeringSvc
# CondDBLogger
# CondDBReplayAlg
# CondDBSQLiteCopyAccSvc
# CondDBTimeSwitchSvc
# ConeJetProxyFilter
# ConeVariables
# ConeVariablesForEW
# ConfigCDBAccessSvc
# ConfigDBAccessSvc
# ConfigFileAccessSvc
# ConfigStackAccessSvc
# ConfigTarFileAccessSvc
# ConfigZipFileAccessSvc
# ConjugateNeutralPID
# ContextEventCounterData
# ContextEventCounterPtr
# ConversionDODMapper
# CountParticles
# CountVeloTracks
# CounterAlg
# CounterLevel
# CounterSvc
# CountingPrescaler
# CpuHungryAlg
# CreateFastTrackCollection
# DAQEventTests__ByteStreamTests
# DAQEventTests__DummyRawEventCreator
# DDDBConf
# DLLMuonTool
# DODBasicMapper
# DQAcceptTool
# DQFilter
# DQFilterSvc
# DToKPiTwoProng
# DVFilter1
# DVFilter2
# DaVinciInit
# DaVinci__N3BodyDecays
# DaVinci__N4BodyDecays
# DaVinci__N5BodyDecays
# DaVinci__N6BodyDecays
# DaVinci__N7BodyDecays
# DaVinci__N8BodyDecays
# DaVinci__ParticleTransporter
# DataCreator
# DataObjectVersionFilter
# DataOnDemandSvc
# DataPacking__Check_LHCb__CaloClusterPacker_
# DataPacking__Check_LHCb__FlavourTagPacker_
# DataPacking__Check_LHCb__MCBcmHitPacker_
# DataPacking__Check_LHCb__MCBlsHitPacker_
# DataPacking__Check_LHCb__MCEcalHitPacker_
# DataPacking__Check_LHCb__MCFTHitPacker_
# DataPacking__Check_LHCb__MCHCHitPacker_
# DataPacking__Check_LHCb__MCHcalHitPacker_
# DataPacking__Check_LHCb__MCITHitPacker_
# DataPacking__Check_LHCb__MCMuonHitPacker_
# DataPacking__Check_LHCb__MCOTHitPacker_
# DataPacking__Check_LHCb__MCPrsHitPacker_
# DataPacking__Check_LHCb__MCPuVetoHitPacker_
# DataPacking__Check_LHCb__MCRichDigitSummaryPacker_
# DataPacking__Check_LHCb__MCRichHitPacker_
# DataPacking__Check_LHCb__MCRichOpticalPhotonPacker_
# DataPacking__Check_LHCb__MCRichSegmentPacker_
# DataPacking__Check_LHCb__MCRichTrackPacker_
# DataPacking__Check_LHCb__MCSLHitPacker_
# DataPacking__Check_LHCb__MCSpdHitPacker_
# DataPacking__Check_LHCb__MCTTHitPacker_
# DataPacking__Check_LHCb__MCUTHitPacker_
# DataPacking__Check_LHCb__MCVPHitPacker_
# DataPacking__Check_LHCb__MCVeloHitPacker_
# DataPacking__Check_LHCb__MuonPIDPacker_
# DataPacking__Check_LHCb__ParticlePacker_
# DataPacking__Check_LHCb__RelatedInfoRelationsPacker_
# DataPacking__Check_LHCb__RichPIDPacker_
# DataPacking__Check_LHCb__VertexPacker_
# DataPacking__Check_LHCb__WeightsVectorPacker_
# DataPacking__Pack_LHCb__CaloClusterPacker_
# DataPacking__Pack_LHCb__FlavourTagPacker_
# DataPacking__Pack_LHCb__MCBcmHitPacker_
# DataPacking__Pack_LHCb__MCBlsHitPacker_
# DataPacking__Pack_LHCb__MCEcalHitPacker_
# DataPacking__Pack_LHCb__MCFTHitPacker_
# DataPacking__Pack_LHCb__MCHCHitPacker_
# DataPacking__Pack_LHCb__MCHcalHitPacker_
# DataPacking__Pack_LHCb__MCITHitPacker_
# DataPacking__Pack_LHCb__MCMuonHitPacker_
# DataPacking__Pack_LHCb__MCOTHitPacker_
# DataPacking__Pack_LHCb__MCPrsHitPacker_
# DataPacking__Pack_LHCb__MCPuVetoHitPacker_
# DataPacking__Pack_LHCb__MCRichDigitSummaryPacker_
# DataPacking__Pack_LHCb__MCRichHitPacker_
# DataPacking__Pack_LHCb__MCRichOpticalPhotonPacker_
# DataPacking__Pack_LHCb__MCRichSegmentPacker_
# DataPacking__Pack_LHCb__MCRichTrackPacker_
# DataPacking__Pack_LHCb__MCSLHitPacker_
# DataPacking__Pack_LHCb__MCSpdHitPacker_
# DataPacking__Pack_LHCb__MCTTHitPacker_
# DataPacking__Pack_LHCb__MCUTHitPacker_
# DataPacking__Pack_LHCb__MCVPHitPacker_
# DataPacking__Pack_LHCb__MCVeloHitPacker_
# DataPacking__Pack_LHCb__MuonPIDPacker_
# DataPacking__Pack_LHCb__ParticlePacker_
# DataPacking__Pack_LHCb__RelatedInfoRelationsPacker_
# DataPacking__Pack_LHCb__RichPIDPacker_
# DataPacking__Pack_LHCb__VertexPacker_
# DataPacking__Pack_LHCb__WeightsVectorPacker_
# DataPacking__Unpack_LHCb__CaloClusterPacker_
# DataPacking__Unpack_LHCb__FlavourTagPacker_
# DataPacking__Unpack_LHCb__MCBcmHitPacker_
# DataPacking__Unpack_LHCb__MCBlsHitPacker_
# DataPacking__Unpack_LHCb__MCEcalHitPacker_
# DataPacking__Unpack_LHCb__MCFTHitPacker_
# DataPacking__Unpack_LHCb__MCHCHitPacker_
# DataPacking__Unpack_LHCb__MCHcalHitPacker_
# DataPacking__Unpack_LHCb__MCITHitPacker_
# DataPacking__Unpack_LHCb__MCMuonHitPacker_
# DataPacking__Unpack_LHCb__MCOTHitPacker_
# DataPacking__Unpack_LHCb__MCPrsHitPacker_
# DataPacking__Unpack_LHCb__MCPuVetoHitPacker_
# DataPacking__Unpack_LHCb__MCRichDigitSummaryPacker_
# DataPacking__Unpack_LHCb__MCRichHitPacker_
# DataPacking__Unpack_LHCb__MCRichOpticalPhotonPacker_
# DataPacking__Unpack_LHCb__MCRichSegmentPacker_
# DataPacking__Unpack_LHCb__MCRichTrackPacker_
# DataPacking__Unpack_LHCb__MCSLHitPacker_
# DataPacking__Unpack_LHCb__MCSpdHitPacker_
# DataPacking__Unpack_LHCb__MCTTHitPacker_
# DataPacking__Unpack_LHCb__MCUTHitPacker_
# DataPacking__Unpack_LHCb__MCVPHitPacker_
# DataPacking__Unpack_LHCb__MCVeloHitPacker_
# DataPacking__Unpack_LHCb__MuonPIDPacker_
# DataPacking__Unpack_LHCb__ParticlePacker_
# DataPacking__Unpack_LHCb__RelatedInfoRelationsPacker_
# DataPacking__Unpack_LHCb__RichPIDPacker_
# DataPacking__Unpack_LHCb__VertexPacker_
# DataPacking__Unpack_LHCb__WeightsVectorPacker_
# DataStreamTool
# DataSvcFileEntriesTool
# DeCaloCalib
# DeCaloTiming
# DeFTTestAlg
# DebugTrackingLosses
# DecayFinder
# DecodePileUpData
# DecodeRawEvent
# DecodeSimpleDecayString
# DecodeVeloFullRawBuffer
# DecodeVeloRawBuffer
# DelegatingTrackSelector
# Derivatives
# DetCondTest__DQScanTest
# DetCondTest__FinalizationEvtLoop
# DetCondTest__TestConditionAlg
# DetCondTest__bug_80076
# DetDataSvc
# DetDesc__CheckOverlap
# DetDesc__MaterialBudget
# DetDesc__VolumeCheck
# DetElemFinder
# DetPersistencySvc
# DetailedMaterialLocator
# DeterministicPrescaler
# DiElectronMaker
# DiagSolvTool
# DigiConf
# DirectionFitter
# DistMuIDTool
# DoubleTagging
# DoubleTopoTool
# DownstreamGhostClassification
# DstConf
# DumpFSR
# DumpHepMC
# DumpHepMCDecay
# DumpHepMCTree
# DumpL0CaloBanks
# DumpLumiEvents
# DumpMCEventAlg
# DumpTracks
# EcalChi22ID
# EcalEnergyForTrack
# EcalPIDeAlg
# EcalPIDmuAlg
# ElectronMatchAlg
# EmptyEventNodeCleaner
# EqSolver
# EqSolverGenAlg
# EqSolverIAlg
# EqSolverPAlg
# ErrorLogTest
# ErrorTool
# Escher
# EventAccounting
# EventClockSvc
# EventCollectionSelector
# EventCountAlg
# EventCountHisto
# EventCounter
# EventLoopMgr
# EventNodeKiller
# EventSelector
# EventTimeMonitor
# EvtCollectionStream
# EvtCollectionWrite
# EvtCounter
# EvtDataSvc
# EvtPersistencySvc
# EvtTypeChecker
# EvtTypeSvc
# ExceptionSvc
# ExtendedProperties
# ExtrapolatorChecker
# ExtrapolatorCheckerNT
# FPEAuditor
# FSRCleaner
# FSRNavigator
# FTHitExpectation
# FTMeasurementProvider
# FTRawBankDecoder
# FTRawBankEncoder
# FakeEventTime
# FastForwardTool
# FastFwdTool
# FastL0DUFilter
# FastMomentumEstimate
# FastPVFinder
# FastPVMonitor
# FastVeloFitLHCbIDs
# FastVeloHitManager
# FastVeloTracking
# FileIdBankWriter
# FileMgr
# FileMgrTest
# FileReadTool
# FileRecordDataSvc
# FileStagerSvc
# FilterByBankType
# FilterByRunEvent
# FilterDecays
# FilterDesktop
# FilterDownstreamTracks
# FilterEventList
# FilterFillingScheme
# FilterInTrees
# FilterJet
# FilterMatchTracks
# FilterOnLumiSummary
# FilterSeedTracks
# FilterStream
# FindCloneTool
# FitDecayTrees
# FitTool
# FlagHitsForPatternReco
# FlagSignalChain
# FlavourTaggingConf
# ForcedBDecayTool
# ForwardSchedulerSvc
# FuncMinimum
# FuncMinimumGenAlg
# FuncMinimumIAlg
# FuncMinimumPAlg
# FwdFitParams
# GAlign
# GammaPi0SeparationTool
# GaudiAtomicSequencer
# GaudiCommonTests
# GaudiEx__QotdAlg
# GaudiExamplesCommonConf
# GaudiExamples__CounterSvcAlg
# GaudiExamples__GaudiPPS
# GaudiExamples__LoggingAuditor
# GaudiExamples__StatSvcAlg
# GaudiExamples__TimingAlg
# GaudiHistoAlgorithm
# GaudiParallelizer
# GaudiPersistency
# GaudiSequencer
# GaudiSvcTest__CounterTestAlg
# GaudiTesting__CustomIncidentAlg
# GaudiTesting__DestructorCheckAlg
# GaudiTesting__EvenEventsFilter
# GaudiTesting__FailingSvc
# GaudiTesting__GetDataObjectAlg
# GaudiTesting__JIRA__GAUDI_1185
# GaudiTesting__ListTools
# GaudiTesting__OddEventsFilter
# GaudiTesting__PluginService__Algorithm1
# GaudiTesting__PrintMemoryUsage
# GaudiTesting__PutDataObjectAlg
# GaudiTesting__SignallingAlg
# GaudiTesting__SleepyAlg
# GaudiTesting__StopLoopAlg
# GaudiTesting__SvcWithTool
# Gaudi_Test_MySuperAlg
# Gaudi__DataCopy
# Gaudi__DataLink
# Gaudi__DataRemove
# Gaudi__Examples__ArrayProperties
# Gaudi__Examples__BoostArrayProperties
# Gaudi__Examples__CountSelectedTracks
# Gaudi__Examples__CustomPropertiesAlg
# Gaudi__Examples__EvtColAlg
# Gaudi__Examples__ExtendedEvtCol
# Gaudi__Examples__ExtendedProperties2
# Gaudi__Examples__FloatDataConsumer
# Gaudi__Examples__HistoProps
# Gaudi__Examples__IntDataConsumer
# Gaudi__Examples__IntDataProducer
# Gaudi__Examples__IntToFloatData
# Gaudi__Examples__MultiInput__DumpAddress
# Gaudi__Examples__MultiInput__ReadAlg
# Gaudi__Examples__MultiInput__WriteAlg
# Gaudi__Examples__SelCreate
# Gaudi__Examples__SelFilter
# Gaudi__Examples__SelectTracks
# Gaudi__Examples__StringKeyEx
# Gaudi__Hive__FetchDataFromFile
# Gaudi__IODataManager
# Gaudi__IncidentFilter
# Gaudi__IncidentVeto
# Gaudi__MetaDataSvc
# Gaudi__MultiFileCatalog
# Gaudi__ParticlePropertySvc
# Gaudi__RootCnvSvc
# Gaudi__RootEvtSelector
# Gaudi__RootPerfMonSvc
# Gaudi__StagedIODataManager
# Gaudi__Utils__SignalMonitorSvc
# Gaudi__Utils__StopSignalHandler
# GenFSRLog
# GenFSRMerge
# GenFSRRead
# GenFSRStat
# GenericParticle2PVRelator__p2PVWithIPChi2_OfflineDistanceCalculatorName_
# GenericParticle2PVRelator__p2PVWithIPChi2_OnlineDistanceCalculatorName_
# GenericParticle2PVRelator__p2PVWithIP_OfflineDistanceCalculatorName_
# GenericParticle2PVRelator__p2PVWithIP_OnlineDistanceCalculatorName_
# GetArrival
# GetElementsToBeAligned
# GetIntegratedLuminosity
# GetLumiParameters
# GlobalRecoChecks
# GlobalRecoConf
# Google__CPUProfiler
# Google__HeapChecker
# Google__HeapProfiler
# GslErrorCount
# GslErrorException
# GslErrorPrint
# GslSvc
# HCDelayScan
# HCDigitCorrector
# HCDigitMonitor
# HCDigitTuple
# HCEventTuple
# HCPedestalCorrection
# HCRawBankDecoder
# HCRawBankDecoderHlt
# HcalEnergyForTrack
# HcalPIDeAlg
# HcalPIDmuAlg
# HelloWorld
# HepRndm__Engine_CLHEP__DRand48Engine_
# HepRndm__Engine_CLHEP__DualRand_
# HepRndm__Engine_CLHEP__HepJamesRandom_
# HepRndm__Engine_CLHEP__Hurd160Engine_
# HepRndm__Engine_CLHEP__Hurd288Engine_
# HepRndm__Engine_CLHEP__MTwistEngine_
# HepRndm__Engine_CLHEP__RanecuEngine_
# HepRndm__Engine_CLHEP__Ranlux64Engine_
# HepRndm__Engine_CLHEP__RanluxEngine_
# HepRndm__Engine_CLHEP__RanshiEngine_
# HepRndm__Engine_CLHEP__TripleRand_
# HighPtIsoLeptonAndTagPV
# HighPtTopoTool
# HistoAlgorithm
# HistoTimingAlg
# HistoTool
# HistogramPersistencySvc
# HistogramSvc
# History
# HistorySvc
# HitEffPlotter
# HiveReadAlgorithm
# HiveSlimEventLoopMgr
# HiveTestAlgorithm
# HiveWhiteBoard
# Hlt1TriggerTisTos
# Hlt2TriggerTisTos
# HltANNSvc
# HltCaloPIDsConf
# HltCaloRecoConf
# HltCompositionMonitor
# HltConfigSvc
# HltDecReportsDecoder
# HltDecReportsWriter
# HltDiffHltDecReports
# HltGenConfig
# HltInsertTrackErrParam
# HltJetBuilder
# HltLumiSummaryDecoder
# HltLumiWriter
# HltPackedDataDecoder
# HltPackedDataWriter
# HltParticleFlow
# HltRateMonitor
# HltRawDataMonitor
# HltRoutingBitsFilter
# HltRoutingBitsWriter
# HltSelReportsDecoder
# HltSelReportsWriter
# HltTrackConverter
# HltTrackReportsDecoder
# HltTrackReportsWriter
# HltV0Upgrade
# HltVertexReportsDecoder
# HltVertexReportsWriter
# IOBoundAlgSchedulerSvc
# IOFSRSvc
# IOTest
# ITClusterOccupancy
# ITDigitOccupancy
# ITGenericTracking
# ITHitExpectation
# ITIsolatedTrackSelector
# ITReadoutTool
# ITTrackConfirmation
# ITTrackMonitor
# ITTrackSelector
# IdealStateCreator
# IdealTracksCreator
# InBremAcceptance
# InBremAcceptanceAlg
# InCaloAcceptance
# InCaloAcceptanceAlg
# InEcalAcceptance
# InEcalAcceptanceAlg
# InHcalAcceptance
# InHcalAcceptanceAlg
# InPrsAcceptance
# InPrsAcceptanceAlg
# InSpdAcceptance
# InSpdAcceptanceAlg
# IncidentAsyncTestAlg
# IncidentAsyncTestSvc
# IncidentListenerTestAlg
# IncidentProcAlg
# IncidentSvc
# InertMessageSvc
# InputCopyStream
# IntelProfilerAuditor
# InternalVeloCluster2MCHitLinker
# IoComponentMgr
# IsMuonCandidateC
# IssueLogger
# JemallocProfile
# JemallocProfileSvc
# Jets2JetsAlg
# JobOptionsSvc
# KsFitParams
# L0Calo2CaloTool
# L0CaloAlg
# L0CaloCandidatesFromRaw
# L0CaloCandidatesFromRawBank
# L0CaloCheckCalibCte
# L0CaloCompare
# L0CaloMonit
# L0CaloNtpMonitor
# L0CaloPRSResetMonitor
# L0CaloScale
# L0CaloToMCParticleAsct
# L0CondDBProvider
# L0Conf
# L0DUAlg
# L0DUConfigProvider
# L0DUEmulatorTool
# L0DUFromRawAlg
# L0DUFromRawHlt1Tool
# L0DUFromRawTool
# L0DUMultiConfigProvider
# L0DUMultiTrends
# L0DURawBankMonitor
# L0DUReportMonitor
# L0DataFilter
# L0DataNtp
# L0DecReportsMaker
# L0ETC
# L0Filter
# L0MuonAlg
# L0MuonAlgComparison
# L0MuonAsymMonitor
# L0MuonCandHistos
# L0MuonCandidatesFromRaw
# L0MuonChannelsHistos
# L0MuonErrorHistos
# L0MuonFromRawTrans
# L0MuonInfoHistos
# L0MuonInputTool
# L0MuonModifyInputTool
# L0MuonMonitor
# L0MuonMonitorCandidates
# L0MuonMonitorData
# L0MuonMonitorError
# L0MuonMonitorInput
# L0MuonMonitorProcessing
# L0MuonMuonComp
# L0MuonOLErrorTool
# L0MuonOnlineMonitor
# L0MuonOptLinksHistos
# L0MuonOutputs
# L0MuonOverflowTool
# L0MuonPadsHistos
# L0Pattern
# L0ProcessorDataDecoder
# L0SelReportsMaker
# L0TCKfilter
# L0TriggerTisTos
# LHCbAlgsTest__CreateFakeRecHeader
# LHCbAlgsTest__PrintEventTime
# LHCbAlgsTest__ServiceStarter
# LHCbAlgsTests__CopyFileAlg
# LHCbAlgsTests__ODINBadTimeTest
# LHCbAlgsTests__RunChangeTest
# LHCbAlgsTests__TestEventCounter
# LHCbAlgsTests__TestTimeDecoderOdin
# LHCbApp
# LHCbConfigurableUser
# LHCbFSRStream
# LHCbIDsToMCHits
# LHCbIDsToMCParticles
# LHCbOutputStream
# LHCbRecordStream
# LHCbSequencerTimerTool
# LHCbTests__GenericTool__Algorithm
# LHCbTests__GenericTool__MyGenericTSTool
# LHCbTests__GenericTool__MyGenericTool
# LHCbTimingAuditor
# LHCb__Example__PartPropAlg
# LHCb__MDFSelector
# LHCb__MDFWriter
# LHCb__MDFWriterLite
# LHCb__MEPDump
# LHCb__MEPTester
# LHCb__MEPWriter
# LHCb__MIFSelector
# LHCb__MIFWriter
# LHCb__ParticlePropertySvc
# LHCb__RawDataCnvSvc
# LHCb__RawDataWriter
# LHCb__RawEventCopy
# LHCb__RawEventTestCreator
# LHCb__RawEventTestDump
# LHCb__TAETestCreator
# LLTCaloAlg
# LSAdaptPV3DFitter
# LSAdaptPVFitter
# LandauTest
# LbAppInit
# LoKiSvc
# LoKi__BDTTag
# LoKi__CheckOverlap
# LoKi__CounterAlg
# LoKi__Decay
# LoKi__DecayNode
# LoKi__DecayTreeFit
# LoKi__DirectionFitter
# LoKi__DistanceCalculator
# LoKi__DumpHepMC
# LoKi__DumpMC
# LoKi__ElectronTag
# LoKi__FakeReFitter
# LoKi__FastJetMaker
# LoKi__FastJetWithAreaMaker
# LoKi__FastVertexFitter
# LoKi__GenDecay
# LoKi__GenFilter
# LoKi__HDRFilter
# LoKi__Hybrid__ArrayTupleTool
# LoKi__Hybrid__CoreFactory
# LoKi__Hybrid__DTFDict
# LoKi__Hybrid__Dict2Tuple
# LoKi__Hybrid__DictOfFunctors
# LoKi__Hybrid__DictTransform_BBDecTreeTransform_
# LoKi__Hybrid__DictTransform_DummyTransform_
# LoKi__Hybrid__DictTransform_MatrixnetTransform_
# LoKi__Hybrid__DictTransform_TMVATransform_
# LoKi__Hybrid__DictValue
# LoKi__Hybrid__EvtTupleTool
# LoKi__Hybrid__FilterCriterion
# LoKi__Hybrid__FilterParticles
# LoKi__Hybrid__GenTool
# LoKi__Hybrid__HltFactory
# LoKi__Hybrid__MCParticleSelector
# LoKi__Hybrid__MCTool
# LoKi__Hybrid__ParticleArrayFilter
# LoKi__Hybrid__PlotTool
# LoKi__Hybrid__PrintTool
# LoKi__Hybrid__ProtoParticleFilter
# LoKi__Hybrid__Tool
# LoKi__Hybrid__TrackFunctorFactory
# LoKi__Hybrid__TrackSelector
# LoKi__Hybrid__TupleTool
# LoKi__IPTag
# LoKi__JetMaker
# LoKi__JetMakerWR2Vtx
# LoKi__JetParticleMaker
# LoKi__L0Filter
# LoKi__LifetimeFitter
# LoKi__MCDecay
# LoKi__MCFilter
# LoKi__MassFitter
# LoKi__MuonTag
# LoKi__NNBTag
# LoKi__ODINFilter
# LoKi__PFJetMaker
# LoKi__PIDTest
# LoKi__PVReFitter
# LoKi__ParticleClassificator
# LoKi__PrintDecay
# LoKi__Reporter
# LoKi__SVTag
# LoKi__SeedConeJetMaker
# LoKi__SeedFinder
# LoKi__SeedFinderNTrks
# LoKi__SmartParticleCombiner
# LoKi__SpecialValue
# LoKi__TopoTag
# LoKi__TopoTagDir
# LoKi__TrgDistanceCalculator
# LoKi__VVSeedFinder
# LoKi__VertexFitter
# LoKi__VoidFilter
# LoadDDDB
# LongGhostClassification
# LongTrackReferenceCreator
# LoopAlg
# LumiAccounting
# LumiAlgsConf
# LumiCheckCondDB
# LumiEventTuple
# LumiFileReader
# LumiIntegrateFSR
# LumiIntegrator
# LumiMergeFSR
# LumiReadBackFSR
# MCDecayFinder
# MCEventTypeFinder
# MCHitMonitor
# MCOTDepositMonitor
# MCOTTimeMonitor
# MCParticle2MCHitAlg
# MCParticleSelector
# MCReconstructible
# MCSTDepositMonitor
# MCSTDigitMonitor
# MCVeloFEType
# MVAManager
# MagFieldReader
# MagneticFieldSvc
# MakeMuonMeasurements
# MakeMuonTool
# MakeMuonTracks
# MapAlg
# MatchFitParams
# MeasureIPResolution
# MeasurementProvider
# MeasurementProviderT_MeasurementProviderTypes__ITLite_
# MeasurementProviderT_MeasurementProviderTypes__IT_
# MeasurementProviderT_MeasurementProviderTypes__TTLite_
# MeasurementProviderT_MeasurementProviderTypes__TT_
# MeasurementProviderT_MeasurementProviderTypes__UTLite_
# MeasurementProviderT_MeasurementProviderTypes__UT_
# MeasurementProviderT_MeasurementProviderTypes__VP_
# MeasurementProviderT_MeasurementProviderTypes__VeloLitePhi_
# MeasurementProviderT_MeasurementProviderTypes__VeloLiteR_
# MeasurementProviderT_MeasurementProviderTypes__VeloPhi_
# MeasurementProviderT_MeasurementProviderTypes__VeloR_
# MemStatAuditor
# MemoryAuditor
# MemoryTool
# MergedPi0Maker
# MessageSvc
# Millepede
# MinimalEventLoopMgr
# MisAlignAlg
# MisAligner
# MomentumCombiner
# MoveRecVertexTracks
# MuMonitor
# MultiStoreSvc
# MultipleMagneticFieldSvc
# MuonChi2MatchTool
# MuonClusterRec
# MuonClusterTool
# MuonCombRec
# MuonCoord2MCParticleLink
# MuonDAQTest
# MuonDetPosTool
# MuonDigit2MCParticleAlg
# MuonDigitToRawBuffer
# MuonFakeClustering
# MuonFastHWTool
# MuonFastPosTool
# MuonHitDecode
# MuonIDAlg
# MuonIDAlgLite
# MuonIDPlusAlg
# MuonIDPlusTool
# MuonInformation
# MuonKalmanMatchTool
# MuonMeasurementProvider
# MuonNNetRec
# MuonPIDChecker
# MuonPIDsFromProtoParticlesAlg
# MuonPad2MCTool
# MuonPadFromCoord
# MuonPadRec
# MuonPadTest
# MuonRawBuffer
# MuonRead
# MuonRec
# MuonTAERec
# MuonTTTrack
# MuonTell1Config
# MuonTileDigitInfo
# MuonTimeCor
# MuonTrackAligMonitor
# MuonTrackMomRec
# MuonTrackMonitorConf
# MyAlgorithm
# MyAudAlgorithm
# MyAudTool
# MyDataAlgorithm
# MyGaudiAlgorithm
# MyGaudiTool
# MyTool
# NBB2HHTriggerTool
# NNetTool_MLP
# NShared
# NTupleAlgorithm
# NTupleSvc
# NameAuditor
# Named1
# NeutralCCChangePIDTool
# NeutralIDTool
# NeutralProtoPAlg
# NeutralProtoParticleAddNeutralID
# NewVeloRTracking
# NewVeloSpaceTool
# NoPIDsParticleMaker
# NumberOfTracksFilter
# ODINDecodeTool
# ODINEncodeTool
# ODINTimeFilter
# OTCalibrationAlg
# OTCalibrationIO
# OTCalibrationIOTool
# OTChannelMapTool
# OTChannelMonitor
# OTCoordinates
# OTDoubleHitStudy
# OTHitEfficiencyMonitor
# OTHitExpectation
# OTHitMultiplicityFilter
# OTMCDepositLinker
# OTMCHitLinker
# OTMCParticleLinker
# OTMeasurementProvider
# OTModuleClbrAlg
# OTModuleClbrMon
# OTMonoLayerAlignment
# OTMultiBXRawBankDecoder
# OTMuonCosmicsMatching
# OTRawBankDecoder
# OTRawBankEncoder
# OTReadOutWindow
# OTTime2MCDepositLinker
# OTTime2MCHitLinker
# OTTime2MCParticleLinker
# OTTimeChecker
# OTTimeClassification
# OTTimeCreator
# OTTimeMonitor
# OTTrackMonitor
# OTWriteConditionsToXml
# OTWriteMonoAlignmentToXml
# OTYAlignMagOff
# OdinBCIDFilter
# OdinTimeDecoder
# OdinTypesFilter
# OffLineCaloPIDsConf
# OffLineCaloRecoConf
# OfflineDeterministicPrescaler
# OfflineRateLimiter
# OfflineVertexFitter
# OutputStream
# PGPrimaryVertex
# PVOfflineRecalculate
# PVOfflineTool
# PVReFitter
# PVReFitterAlg
# PVRelatorAlg
# PVResMonitor
# PVResolution
# PVSeed3DOfflineTool
# PVSeed3DTool
# PVSeedTool
# PVSplit
# PVToRecConverter
# PVTrackRemover
# PackCaloHypo
# PackCluster
# PackDecReport
# PackMCParticle
# PackMCVertex
# PackParticlesAndVertices
# PackPrimaryVertices
# PackProtoParticle
# PackRecVertex
# PackTrack
# PackTwoProngVertex
# ParentAlg
# Part2Calo
# PartPropExa
# PartPropSvc
# Particle2State
# ParticleAdder
# ParticleDescendants
# ParticleFlow
# ParticleFlow4Jets
# ParticleStuffer
# ParticleTisTos
# ParticleToTrackContainer
# ParticleTransporter
# ParticleVeto
# ParticlesAndVerticesMapper
# PartitionSwitchAlg
# PartitionSwitchTool
# PatAddTTCoord
# PatChecker
# PatCheckerNTuple
# PatCounter
# PatDebugTTTruthTool
# PatDebugTrackTool
# PatDownstream
# PatForward
# PatForwardTool
# PatFwdTool
# PatKShortChecker
# PatLHCbID2MCParticle
# PatLongLivedParams
# PatLongLivedTracking
# PatMakeV0
# PatMatch
# PatMatchTool
# PatPV3D
# PatPVOffline
# PatSeedFit
# PatSeedTool
# PatSeeding
# PatSeedingTool
# PatTStationDebugTool
# PatTStationHitManager
# PatTTCounter
# PatTTMagnetTool
# PatTTStationHitManager
# PatTableForFunction
# PatTrack2MCParticle
# PatVeloDebugTool
# PatVeloOpenTracking
# PatVeloTT
# PatVeloTTFit
# PatVeloTTHybrid
# PatVeloTTHybridTool
# PatVeloTTTool
# PerfMonAuditor
# PersistencySvc
# PhotonMaker
# PhotonMakerAlg
# PhotonMatchAlg
# PhysConf
# Pi0Veto__Filter
# Pi0Veto__Tagger
# Pi0Veto__Tagger2g
# PitchResTool
# PluginServiceTest__CustomFactoryAlgorithm
# PluginServiceTest__MyAlg
# PluginServiceTest__MyTemplatedAlg_intr_doublep_
# PostScaler
# PrAddUTHitsTool
# PrCheatedSciFiTracking
# PrCheatedVP
# PrCheatedVelo
# PrChecker
# PrChecker2
# PrClustersResidual
# PrCounter
# PrCounter2
# PrDebugTrackingLosses
# PrDebugUTTruthTool
# PrDownstream
# PrFTHitManager
# PrFitFwdParams
# PrFitKsParams
# PrFitSeedParams
# PrFitTool
# PrForwardTool
# PrForwardTracking
# PrGeometryTool
# PrHitDecoding
# PrHybridSeeding
# PrLHCbID2MCParticle
# PrLongLivedTracking
# PrMatch
# PrMatchNN
# PrMatchTool
# PrMatchToolNN
# PrPixelDebugTool
# PrPixelHitManager
# PrPixelMonitor
# PrPixelStoreClusters
# PrPixelTracking
# PrPlotFTHits
# PrTStationDebugTool
# PrTTCounter
# PrTableForFunction
# PrTrackAssociator
# PrUTMagnetTool
# PrUTStationHitManager
# PrVeloUT
# PrVeloUTChecker
# PrVeloUTTool
# PreloadGeometryTool
# PrepareVeloFullRawBuffer
# PrepareVeloRawBuffer
# Prescaler
# PrimaryVertexChecker
# PrintDecayTree
# PrintDuplicates
# PrintHeader
# PrintMCDecayTreeAlg
# PrintMCDecayTreeTool
# PrintMCTree
# ProcStatAbortMoni
# ProcessPhase
# PropagateFSRs
# PropertimeFitter
# PropertyAlg
# PropertyConfigSvc
# PropertyProxy
# ProtoParticleANNPIDFilter
# ProtoParticleCALOFilter
# ProtoParticleDLLFilter
# ProtoParticleMUONFilter
# ProtoParticleRICHFilter
# PrsEnergyForTrack
# PrsPIDeAlg
# PtTransporter
# PuVetoAlg
# PuVetoFillRawBuffer
# PythonScriptingSvc
# RandomNumberAlg
# RateFromCondDB
# RateFromTCK
# RawBankReadoutStatusConverter
# RawBankReadoutStatusFilter
# RawBankReadoutStatusMonitor
# RawBankSizeMonitor
# RawBankToSTClusterAlg
# RawBankToSTLiteClusterAlg
# RawEventDump
# RawEventFormatConf
# RawEventJuggler
# RawEventMapCombiner
# RawEventSelectiveCopy
# RawEventSimpleCombiner
# ReadAlg
# ReadHandleAlg
# ReadPackedDst
# ReadTES
# RecEventTime
# RecInit
# RecMoniConf
# RecProcessingTimeMoni
# RecSummaryAlg
# RecSysConf
# RecToPVConverter
# RecombineRawEvent
# RecordDataSvc
# RecordOutputStream
# RecordStream
# RelInfoConeIsolation
# RelInfoConeVariables
# RelInfoConeVariablesForEW
# RelInfoCylVariables
# RelInfoPFVariables
# RelInfoVertexIsolation
# RelInfoVertexIsolationDetached
# RemoveClones
# ReplayOutputStream
# ReportCheckTool
# ReportConvertTool
# ResetHits
# ResolvedPi0Maker
# RichAlignmentConf
# RichConfigurableUser
# RichENNRingFinderConf
# RichGlobalPIDConfig
# RichPIDsFromProtoParticlesAlg
# RichParticleSearchConf
# RichPhotonCreatorConfig
# RichPixelCreatorConfig
# RichRecQCConf
# RichRecSysBaseConf
# RichRecSysConf
# RichSegmentCreatorConf
# RichTAEStruture
# RichTemplateRingFinderConf
# RichTools
# RichTrackCreatorConfig
# Rich__AddBackground
# Rich__DAQ__DataDBCheck
# Rich__DAQ__DataDecodingErrorMoni
# Rich__DAQ__HPDPixelClusterSuppressionTool
# Rich__DAQ__HPDPixelClusteringTool
# Rich__DAQ__HighOccHPDSuppressionTool
# Rich__DAQ__LoadRawEvent
# Rich__DAQ__ODINMoni
# Rich__DAQ__RawBufferToRichDigitsAlg
# Rich__DAQ__RawBufferToSmartIDsTool
# Rich__DAQ__RawDataFormatTool
# Rich__DAQ__RawDataSize
# Rich__DetParameters
# Rich__DetectorTool
# Rich__Future__DAQ__HighOccHPDSuppressionTool
# Rich__Future__DetParameters
# Rich__Future__DetectorTool
# Rich__Future__MC__TrackToMCParticleRelations
# Rich__Future__MirrorSegFinderLookUpTable
# Rich__Future__ParticleProperties
# Rich__Future__RadiatorTool
# Rich__Future__RawBankDecoder
# Rich__Future__RayTracing
# Rich__Future__Rec__CKEstiFromRadiusPhotonReco
# Rich__Future__Rec__DetailedTrSegMakerFromTracks
# Rich__Future__Rec__DetectablePhotonYields
# Rich__Future__Rec__EmittedPhotonYields
# Rich__Future__Rec__GeomEffCKMassRings
# Rich__Future__Rec__GlobalPID__InitialisePIDInfo
# Rich__Future__Rec__GlobalPID__LikelihoodMinimiser
# Rich__Future__Rec__GlobalPID__WriteRichPIDs
# Rich__Future__Rec__MC__Moni__PIDQC
# Rich__Future__Rec__MC__Moni__PhotonCherenkovAngles
# Rich__Future__Rec__MergeRichPIDs
# Rich__Future__Rec__Moni__DecodingErrors
# Rich__Future__Rec__Moni__DetectorHits
# Rich__Future__Rec__Moni__PhotonCherenkovAngles
# Rich__Future__Rec__Moni__PixelClusters
# Rich__Future__Rec__Moni__RecoStats
# Rich__Future__Rec__Moni__TrackSelEff
# Rich__Future__Rec__PhotonPredictedPixelSignal
# Rich__Future__Rec__PixelBackgroundsEstiAvHPD
# Rich__Future__Rec__PixelClusterGlobalPositions
# Rich__Future__Rec__PixelClusterLocalPositions
# Rich__Future__Rec__QuarticPhotonReco
# Rich__Future__Rec__RayTraceCherenkovCones
# Rich__Future__Rec__RayTraceTrackGlobalPoints
# Rich__Future__Rec__RayTraceTrackLocalPoints
# Rich__Future__Rec__RecoSummary
# Rich__Future__Rec__SelectTrackSegments
# Rich__Future__Rec__SignalPhotonYields
# Rich__Future__Rec__TrackEmittedCherenkovAngles
# Rich__Future__Rec__TrackFilter
# Rich__Future__Rec__TrackFunctionalCherenkovResolutions
# Rich__Future__Rec__TrackSignalCherenkovAngles
# Rich__Future__SmartIDClustering
# Rich__Future__SmartIDTool
# Rich__Future__TabulatedRefractiveIndex
# Rich__HPDAnalysisAlg
# Rich__HPDHotPixelFinder
# Rich__HPDImage__Summary
# Rich__HPDOccupancyTool
# Rich__MC__MCCKPhotonPropAlg
# Rich__MC__MCCKPhotonYieldAlg
# Rich__MC__MCTrackInfoTool
# Rich__MC__MCTruthTool
# Rich__MC__NULLMCTruthTool
# Rich__MirrorSegFinder
# Rich__MirrorSegFinderLookUpTable
# Rich__Mon__HPDIonFeedbackMoni
# Rich__ParticleProperties
# Rich__RadiatorTool
# Rich__RandomPixelBackgroundTool
# Rich__RayTracing
# Rich__RayTracingEigen
# Rich__Rec__AdaptivePhotonReco
# Rich__Rec__BackgroundEstiAvHPD
# Rich__Rec__BackgroundEstiClustering
# Rich__Rec__BaseTrackSelector
# Rich__Rec__BinnedCKResVthetaForRecoTracks
# Rich__Rec__CKthetaBandsPhotonPredictor
# Rich__Rec__CherenkovAngle
# Rich__Rec__ClearEvent
# Rich__Rec__DataObjVerifier
# Rich__Rec__DelegatedTrackCreatorFromRecoTracks
# Rich__Rec__DetailedTrSegMakerFromRecoTracks
# Rich__Rec__ENNRingFinder__Rich1AerogelBottomPanel
# Rich__Rec__ENNRingFinder__Rich1AerogelTopPanel
# Rich__Rec__ENNRingFinder__Rich1GasBottomPanel
# Rich__Rec__ENNRingFinder__Rich1GasTopPanel
# Rich__Rec__ENNRingFinder__Rich2GasLeftPanel
# Rich__Rec__ENNRingFinder__Rich2GasRightPanel
# Rich__Rec__EventSelection
# Rich__Rec__EventSelectionAlg
# Rich__Rec__ExpectedTrackSignal
# Rich__Rec__FastTrSegMakerFromRecoTracks
# Rich__Rec__FlippedDetailedTrSegMakerFromRecoTracks
# Rich__Rec__ForwardTrackSelector
# Rich__Rec__FunctionalCKResForRecoTracks
# Rich__Rec__FunctionalRayleighScatter
# Rich__Rec__GeomEffCKMassRing
# Rich__Rec__GeomEffFixedValue
# Rich__Rec__GeomEffPhotonTracing
# Rich__Rec__GeomTool
# Rich__Rec__GlobalPID__DigitSel
# Rich__Rec__GlobalPID__Finalize
# Rich__Rec__GlobalPID__Initialize
# Rich__Rec__GlobalPID__Likelihood
# Rich__Rec__GlobalPID__LikelihoodTool
# Rich__Rec__GlobalPID__MC__Monitor
# Rich__Rec__GlobalPID__MultiStepTool
# Rich__Rec__GlobalPID__TrackCreator
# Rich__Rec__GlobalPID__TrackSel
# Rich__Rec__GlobalPID__TrackSelUsingPIDs
# Rich__Rec__HPDFlashMoni
# Rich__Rec__HPDHitsMoni
# Rich__Rec__HierarchicalPIDMerge
# Rich__Rec__Initialise
# Rich__Rec__InterpCKResVthetaForRecoTracks
# Rich__Rec__IsolatedTrackTool
# Rich__Rec__KsTrackSelector
# Rich__Rec__MC__AddMissingMCRichTracksAlg
# Rich__Rec__MC__AlignmentMonitor
# Rich__Rec__MC__CherenkovAngleMonitor
# Rich__Rec__MC__CherenkovResMoni
# Rich__Rec__MC__DumpRichHitsToTextFileAlg
# Rich__Rec__MC__DumpRichTracksToTextFileAlg
# Rich__Rec__MC__GhostTrackMoni
# Rich__Rec__MC__MCMassHypoRingsAlg
# Rich__Rec__MC__MCTrueTrackSelector
# Rich__Rec__MC__MCTruthTool
# Rich__Rec__MC__NULLMCTruthTool
# Rich__Rec__MC__PIDQC
# Rich__Rec__MC__PIDTupleAlg
# Rich__Rec__MC__PhotonCreatorCheatedTrackDir
# Rich__Rec__MC__PhotonCreatorFromMCRichOpticalPhotons
# Rich__Rec__MC__PhotonCreatorWithGaussianCKSmear
# Rich__Rec__MC__PhotonCreatorWithMCHitPosition
# Rich__Rec__MC__PhotonCreatorWithMCSignal
# Rich__Rec__MC__PhotonGeomMonitor
# Rich__Rec__MC__PhotonPredictorUsingMCRichOpticalPhotons
# Rich__Rec__MC__PhotonPredictorUsingMCTruth
# Rich__Rec__MC__PhotonRayTraceTest
# Rich__Rec__MC__PhotonRecoCompare
# Rich__Rec__MC__PhotonRecoEffMonitor
# Rich__Rec__MC__PhotonRecoRayTraceTest
# Rich__Rec__MC__PhotonSignalMonitor
# Rich__Rec__MC__PhotonTrajectoryMonitor
# Rich__Rec__MC__PixelCreatorFromAllMCRichHits
# Rich__Rec__MC__PixelCreatorFromCheatedRawBuffer
# Rich__Rec__MC__PixelCreatorFromRichDigitsWithBg
# Rich__Rec__MC__PixelCreatorFromSignalRawBuffer
# Rich__Rec__MC__PixelPositionMonitor
# Rich__Rec__MC__PixelQC
# Rich__Rec__MC__PixelRecoEffMonitor
# Rich__Rec__MC__RecoQC
# Rich__Rec__MC__RichParticleSearchMain
# Rich__Rec__MC__StereoPhotonFitTest
# Rich__Rec__MC__SummaryCKResMoni
# Rich__Rec__MC__SummaryQC
# Rich__Rec__MC__TrSegMakerFromMCRichTracks
# Rich__Rec__MC__TrackCreatorFromMCRichTracks
# Rich__Rec__MC__TrackGeomMoni
# Rich__Rec__MC__TrackResolutionMoni
# Rich__Rec__MC__TrackSelEff
# Rich__Rec__MC__TracklessRingMoni
# Rich__Rec__MC__TruePhotonEmissionPoint
# Rich__Rec__MassHypothesisRingCreator
# Rich__Rec__MatchTrackSelector
# Rich__Rec__NominalTabulatedSignalDetectionEff
# Rich__Rec__PIDMerge
# Rich__Rec__PIDPlots
# Rich__Rec__PhotonCreator
# Rich__Rec__PhotonEmissionPoint
# Rich__Rec__PhotonPredictorUsingRings
# Rich__Rec__PhotonRecoTestAlg
# Rich__Rec__PhotonRecoUsingCKEstiFromRadius
# Rich__Rec__PhotonRecoUsingQuarticSoln
# Rich__Rec__PhotonRecoUsingRaytracing
# Rich__Rec__PhotonSignalGaussProb
# Rich__Rec__PhotonSignalJeffreysErf
# Rich__Rec__PixelBackgroundAlg
# Rich__Rec__PixelClusterMoni
# Rich__Rec__PixelCreatorFromRawBuffer
# Rich__Rec__PixelCreatorWithForcedIneffic
# Rich__Rec__PixelCreatorWithPanelFlip
# Rich__Rec__RayTraceCherenkovCone
# Rich__Rec__RingPeakSearch
# Rich__Rec__SeedTrackSelector
# Rich__Rec__SegmentCreator
# Rich__Rec__SellmeirFunc
# Rich__Rec__SepVCKthetaPhotonPredictor
# Rich__Rec__SimplePhotonPredictor
# Rich__Rec__StatusCreator
# Rich__Rec__StereoFitter
# Rich__Rec__StereoProjection
# Rich__Rec__SummaryAlg
# Rich__Rec__TabulatedGasQuartzWindowAbs
# Rich__Rec__TabulatedRayleighScatter
# Rich__Rec__TabulatedSignalDetectionEff
# Rich__Rec__TemplateRings__RichFFPlan
# Rich__Rec__TemplateRings__RichLocalTargetConfig
# Rich__Rec__TemplateRings__RichLocalTemplateConfig
# Rich__Rec__TemplateRings__RichMCTruthAcquireAlg
# Rich__Rec__TemplateRings__RichMCTruthData
# Rich__Rec__TemplateRings__RichRingMCCompareNtup
# Rich__Rec__TemplateRings__RichRingMasterAlg
# Rich__Rec__TemplateRings__RichRingRecAlgBase
# Rich__Rec__TemplateRings__RichRingRecConstants
# Rich__Rec__TemplateRings__RichRingRecMass
# Rich__Rec__TemplateRings__RichRingRecResult
# Rich__Rec__TemplateRings__RichRingRecToolBase
# Rich__Rec__TemplateRings__RichRingRecTransformTool
# Rich__Rec__TemplateRings__RichRingRecTupleAlgBase
# Rich__Rec__TemplateRings__RichRingReconParam
# Rich__Rec__TemplateRings__RichSingleEvMonHistoTool
# Rich__Rec__TemplateRings__RichTargetDataConfigAlg
# Rich__Rec__TemplateRings__RichTargetDataTool
# Rich__Rec__TemplateRings__RichTemplateDataTool
# Rich__Rec__TimeMonitor
# Rich__Rec__TrackCreatorFromRecoTracks
# Rich__Rec__TrackCreatorFromRecoTracksWithForcedIneffic
# Rich__Rec__TrackEffectiveRefractiveIndex
# Rich__Rec__TrackPIDAlg
# Rich__Rec__TrackRayTraceTest
# Rich__Rec__TrackSelector
# Rich__Rec__TracklessRingFilterAlg
# Rich__Rec__TracklessRingIsolationAlg
# Rich__Rec__TracklessRingSegmentAssociationAlg
# Rich__Rec__VeloTTTrackSelector
# Rich__SmartIDTool
# Rich__SnellsLawRefraction
# Rich__TabulatedRefractiveIndex
# Rich__ToolRegistry
# Rich__VaryGasPressureTemperatureAlg
# RndmGenSvc
# RootHistCnv__PersSvc
# Run2GhostId
# RunChangeHandlerSvc
# RunRecordDataSvc
# RunRecordStream
# RunStampCheck
# SCSAlg
# STADCTrackMonitor
# STBeetleStateTransition
# STChannelIDSelectorAND
# STChannelIDSelectorOR
# STCluster2MCHitLinker
# STCluster2MCParticleLinker
# STClusterChecker
# STClusterClassification
# STClusterCollector
# STClusterContainerCopy
# STClusterCreator
# STClusterKiller
# STClusterResolution
# STClusterSelectorAND
# STClusterSelectorOR
# STClusterTuple
# STClustersToDigits
# STClustersToLite
# STClustersToRawBankAlg
# STCoordinates
# STCosmicFilter
# STDQSummaryAlg
# STDigit2MCHitLinker
# STDigit2MCParticleLinker
# STDigitMonitor
# STDigitsMerge
# STDigitsToSTTELL1Data
# STDumpEvent
# STDumpGeom
# STEffChecker
# STEfficiency
# STErrorDecoding
# STErrorMonitor
# STEventMerge
# STFullDecoding
# STFullEventDump
# STLayerSelector
# STLiteClusterKiller
# STNZSMonitor
# STOfflinePosition
# STOnlinePosition
# STPedestalDecoding
# STPerformanceMonitor
# STPulseMonitor
# STRawADCInfo
# STRawBankMonitor
# STRndmBeetleStateTransition
# STRndmChannelIDSelector
# STRndmEffSelector
# STSelectByCharge
# STSelectBySN
# STSelectChannelIDByBoard
# STSelectChannelIDByElement
# STSelectChannelIDByServiceBox
# STSelectChannelIDByStatus
# STSelectChannelIDByTruth
# STSelectChannelIDOnTrack
# STSelectClustersByChannel
# STSelectLadders17
# STSelectSpilloverCluster
# STSmearedPosition
# STSpilloverTool
# STStripChecker
# STSummaryMonitor
# STTrackTuple
# STYAlignMagOff
# ST__STActiveFraction
# ST__STBadChannelFinder
# ST__STCMSNoiseCalculationTool
# ST__STClusterMonitor
# ST__STDataSizeMonitor
# ST__STDumpADCs
# ST__STDumpClusters
# ST__STLiteClusterMonitor
# ST__STNoiseCalculation
# ST__STNoiseCalculationTool
# ST__STNoiseMonitor
# ST__STOnlineNoiseCalculationTool
# ST__STTAEClusterMonitor
# ST__STTAEClusterTuple
# SVertexNNTool
# SVertexOneSeedTool
# SVertexTool
# SeedFitParams
# SelectTrackInVertex
# Sequencer
# SequencerTimerTool
# SequentialOutputStream
# ServiceA
# ServiceB
# SiAmplifierResponse
# SiDepositedCharge
# SiGeantDepositedCharge
# SiZuriFunction
# SimConf
# SimplePVFitter
# SimplePVSeedTool
# SimplifiedMaterialLocator
# SmartVeloErrorBankDecoder
# SolvExample
# SparseSolver
# SpdEnergyForTrack
# SpdMonitor
# SplitJets
# SpmInvTool
# StagedStreamTool
# StalledEventMonitor
# StandaloneMuonRec
# StandardParticleProvider
# StateDetailedBetheBlochEnergyCorrectionTool
# StateElectronEnergyCorrectionTool
# StateSimpleBetheBlochEnergyCorrectionTool
# StateThickMSCorrectionTool
# StateThinMSCorrectionTool
# StatusCodeSvc
# StopperAlg
# StoreExplorerAlg
# StoreSnifferAlg
# SubAlg
# SubClusterSelector2x2
# SubClusterSelector3x3
# SubClusterSelectorSwissCross
# SubClusterSelectorTool
# SubPIDMMFilter
# SubstitutePID
# SubstitutePIDTool
# SurveyConstraints
# Swimming
# Swimming__PVReFitter
# Swimming__Service
# TAConfig
# TAlgDB
# TAlgIS
# TAlignment
# TBBMessageSvc
# TCKANNSvc
# TCKPrescaleEmulator
# TESCheck
# TESFingerPrint
# TESMerger_LHCb__Particle_
# TESMerger_LHCb__ProtoParticle_
# TESMerger_LHCb__Track_
# TESSelectionTisTos
# TESTisTos
# THistRead
# THistSvc
# THistWrite
# TStation
# TTClusterOccupancy
# TTDigitOccupancy
# TTGenericTracking
# TTHitExpectation
# TTReadoutTool
# TTTrackMonitor
# TTrackFromLong
# TTrackGhostClassification
# TagCollectionStream
# TagCollectionSvc
# TaggerCharmTool
# TaggerElectronTool
# TaggerJetSameTool
# TaggerKaonOppositeTool
# TaggerKaonSameTool
# TaggerMuonTool
# TaggerNEWKaonOppositeTool
# TaggerNEWKaonSameTool
# TaggerPionBDTSameTool
# TaggerPionSameTool
# TaggerProtonSameTool
# TaggerVertexChargeTool
# TaggingUtils
# TemplatedAlg_double_bool_
# TemplatedAlg_int_std__vector_std__string_std__allocator_std__string_s_s_
# TeslaBrunelMonitor
# TeslaMatcher
# TeslaMonitor
# TeslaReportAlgo
# TestRecVertexHolder
# TestTool
# TestToolAlg
# TestToolAlgFailure
# TestToolFailing
# Tf__AddPileupToTrack
# Tf__DefaultVeloPhiHitManager
# Tf__DefaultVeloRHitManager
# Tf__HitManagersTestAlg
# Tf__OTHitCleaner
# Tf__OTHitCreator
# Tf__PatVeloAlignTrackFilter
# Tf__PatVeloFitLHCbIDs
# Tf__PatVeloGeneralTracking
# Tf__PatVeloGeneric
# Tf__PatVeloLiteClusterPromoter
# Tf__PatVeloPhiHitManager
# Tf__PatVeloRHitManager
# Tf__PatVeloRTracking
# Tf__PatVeloResetClusterUsed
# Tf__PatVeloSpaceTool
# Tf__PatVeloSpaceTracking
# Tf__PatVeloTrackTool
# Tf__PatVeloTraversingTracking
# Tf__STHitCleaner
# Tf__STHitCreator_Tf__IT_
# Tf__STHitCreator_Tf__TT_
# Tf__STHitCreator_Tf__UT_
# Tf__TStationHitManager_Tf__HitManagersTestAlg__TestHit_
# Tf__TTStationHitManager_Tf__HitManagersTestAlg__TestHit_
# Tf__TTStationHitManager_Tf__Tsa__SeedingHit_
# Tf__Tsa__DataDebugAlg
# Tf__Tsa__ITExpectedHits
# Tf__Tsa__ITStereoSearch
# Tf__Tsa__ITXSearch
# Tf__Tsa__Likelihood
# Tf__Tsa__OTExpectedHits
# Tf__Tsa__OTStereoSearch
# Tf__Tsa__OTXSearch
# Tf__Tsa__Seed
# Tf__Tsa__SeedAddHits
# Tf__Tsa__SeedSelector
# Tf__Tsa__SeedTrackCnv
# Tf__Tsa__SeedTrackCnvTool
# Tf__Tsa__StubExtender
# Tf__Tsa__StubFind
# Tf__Tsa__StubLinker
# Tf__Tsa__TStationHitManager
# Tf__Tsa__XProjSelector
# ThreadPoolSvc
# TimeAccounting
# TimeDecoderList
# TimelineSvc
# TimingAuditor
# TimingTool
# TimingTuple
# TisTos
# TisTosParticleTagger
# ToolSvc
# TopologicalTagging
# Track2Calo
# Track2EcalEAlg
# Track2HcalEAlg
# Track2PrsEAlg
# Track2SpdEAlg
# TrackAddLikelihood
# TrackAddNNGhostId
# TrackAlignMonitor
# TrackAssociator
# TrackBestTrackCreator
# TrackBuildCloneTable
# TrackCaloMatch
# TrackCaloMatchMonitor
# TrackCheckerNT
# TrackChi2Calculator
# TrackCloneChecker
# TrackCloneCleaner
# TrackCloneFinder
# TrackClusterFinder
# TrackClustersMapper
# TrackCompetition
# TrackComputeExpectedHits
# TrackContainerCleaner
# TrackContainerCopy
# TrackDiMuonMonitor
# TrackDistanceExtraSelector
# TrackDoubleHitPruner
# TrackEffChecker
# TrackEraseExtraInfo
# TrackEventCloneKiller
# TrackEventFitter
# TrackExpectedHitsXYZTool
# TrackFilterAlg
# TrackFitMatchMonitor
# TrackFromDST
# TrackGhostClassificationBase
# TrackHerabExtrapolator
# TrackHitAdder
# TrackHitCollector
# TrackIPResolutionChecker
# TrackIPResolutionCheckerNT
# TrackITOverlapMonitor
# TrackInitFit
# TrackInterpolator
# TrackKalmanFilter
# TrackKiselExtrapolator
# TrackLikelihood
# TrackLinearExtrapolator
# TrackListFilter
# TrackListMerger
# TrackListPrinter
# TrackListRefiner
# TrackMasterExtrapolator
# TrackMasterFitter
# TrackMon
# TrackMonitor
# TrackMonitorNT
# TrackMultiplicityFilter
# TrackMuonMatchMonitor
# TrackMuonMatching
# TrackMuonUpgradeAlg
# TrackOTLRSignTool
# TrackOccupChecker
# TrackPV2HalfAlignMonitor
# TrackPVRefitter
# TrackParabolicExtrapolator
# TrackParticleMonitor
# TrackParticleRefitter
# TrackPrepareForFit
# TrackPrepareVelo
# TrackProjector
# TrackProjectorSelector
# TrackPtKick
# TrackRemoveDoubleHits
# TrackRemoveOddOTClusters
# TrackResChecker
# TrackRungeKuttaExtrapolator
# TrackSTEPExtrapolator
# TrackSeedT0Alg
# TrackSelector
# TrackSimpleExtraSelector
# TrackStateAdder
# TrackStateInitAlg
# TrackStateInitTool
# TrackStateProvider
# TrackStore
# TrackSys
# TrackTimingMonitor
# TrackToDST
# TrackToParticleRelinker
# TrackTune
# TrackUseCaloMomentumAlg
# TrackUsedLHCbID
# TrackV0Finder
# TrackV0Monitor
# TrackVeloOverlapMonitor
# TrackVeloTTChecker
# TrackVelodEdxCharge
# TrackVertexMonitor
# TrackVertexer
# TrackerMCParticle2MCHitAlg
# TrajOTCosmicsProjector
# TrajOTProjector
# TrajPoca
# TrajProjector_FT_
# TrajProjector_Muon_
# TrajProjector_ST_
# TrajProjector_VP_
# TrajProjector_Velo_
# TrajectoryProvider
# TransportSvc
# TrgVertexFitter
# TriggerSelectionTisTos
# TriggerSelectionTisTosSummary
# TriggerTisTos
# TriggerTisTosSummary
# TriggerTypeCounter
# TupleAlg
# TupleAlg2
# TupleAlg3
# TupleTool
# TurboConf
# TurboPrescaler
# UTHitExpectation
# UTReadoutTool
# UTTrackMonitor
# UnpackCaloHypo
# UnpackCluster
# UnpackDecReport
# UnpackMCParticle
# UnpackMCVertex
# UnpackParticlesAndVertices
# UnpackPrimaryVertices
# UnpackProtoParticle
# UnpackRecVertex
# UnpackTrack
# UnpackTwoProngVertex
# UpdateJetsWithVtx
# UpdateManagerSvc
# UpgradeBestTrackCreator
# UpgradeGhostId
# UpstreamGhostClassification
# V0FromDstMaker
# VAlign
# VBVertexRequirement
# VFSSvc
# VPClusterLinker
# VPClusterMonitor
# VPClusterPosition
# VPClustering
# VPDigitLinker
# VPExpectation
# VPOccupancyMonitor
# VPSuperPixelBankEncoder
# VPTrackEff
# VPTrackMonitor
# VPTrackSelector
# VeloAlignment
# VeloCCEConfigTool
# VeloCaloBuilder
# VeloCluster2MCHitLinker
# VeloCluster2MCParticleLinker
# VeloClusterFilter
# VeloClusterMaker
# VeloClusterMoni
# VeloClusterPosition
# VeloClustersToDigits
# VeloClustersToLite
# VeloClustersToRaw
# VeloDataProcessor
# VeloDetChecker
# VeloDigiMoni
# VeloDigit2MCHitLinker
# VeloDigit2MCParticleLinker
# VeloDigitsMerge
# VeloEffChecker
# VeloExpectation
# VeloGhostClassification
# VeloMuonBuilder
# VeloRGhostClassification
# VeloRadDamageTool
# VeloRawClustersMoni
# VeloRecMonitors
# VeloSim
# VeloSimMoni
# VeloSimTell1Algorithm
# VeloSimTell1ClusterMaker
# VeloTell1DataProcessor
# VeloTrackSelector
# VeloUpdateHighThreshold
# Velo__LivDBTELL1SensorMap
# Velo__PvssTell1Names
# Velo__TimeStamps
# Velo__VeloCCEScanMonitor
# Velo__VeloClusterMonitor
# Velo__VeloExpertClusterMonitor
# Velo__VeloIPResolutionMonitor
# Velo__VeloIPResolutionMonitorNT
# Velo__VeloOccupancyMonitor
# Velo__VeloSamplingMonitor
# Velo__VeloTrackMonitor
# Velo__VeloTrackMonitorNT
# VertexChecker
# VertexCompare
# VertexIsolation
# VertexListFilter
# VertexListRefiner
# VisPrimVertTool
# WriteAlg
# WriteAlignmentConditions
# WriteAlignmentConditionsTool
# WriteHandleAlg
# WriteMultiAlignmentConditionsTool
# WriteOTCalibrationsTool
# WritePackedDst
# WriteRichCalibrationsTool
# WriteSTNoiseConditions
# WriteSTStatusConditions
# XMLSummary
# XMLSummarySvc
# XmlCnvSvc
# XmlParserSvc
# bJetSeeds
# bankKiller
# bug_34121__MyAlgorithm
# bug_34121__Tool
# createODIN
# gslSVDsolver
== successful ==
1952
['ANNGlobalPID__ChargedProtoANNPIDAlg', 'ANNGlobalPID__ChargedProtoANNPIDMoni', 'ANNGlobalPID__ChargedProtoANNPIDTool', 'ANNGlobalPID__ChargedProtoANNPIDTrainingTuple', 'ANNGlobalPID__ChargedProtoANNPIDTupleTool', 'ATrackSelector', 'AbortEventAlg', 'AdaptivePV3DFitter', 'AdaptivePVReFitter', 'AddExtraInfo', 'AddRelatedInfo', 'AddToProcStatus', 'AddressKillerAlg', 'Aida2Root', 'AlRobustAlignAlg', 'Al__AlignChisqConstraintTool', 'Al__AlignConstraintTool', 'Al__AlignUpdateTool', 'Al__TrackResidualTool', 'Al__VertexResidualTool', 'AlgContextAuditor', 'AlgContextSvc', 'AlgErrorAuditor', 'AlgExecStateSvc', 'AlgResourcePool', 'AlgorithmCorrelations', 'AlgorithmCorrelationsAlg', 'AlignAlgorithm', 'AlignMuonRec', 'AlignSaveTuple', 'AlignSelTool', 'AlignSensors', 'AlignTrTools', 'AlignTrackMonitor', 'AlignmentOnlineMonitor', 'AllTrackGhostClassification', 'AnalyticFieldSvc', 'AnyDataGetAlgorithm_Int', 'AnyDataGetAlgorithm_VectorInt', 'AnyDataPutAlgorithm', 'AppMgrRunable', 'ApplicationMgr', 'ApplicationVersionFilter', 'AuditorSvc', 'AuditorTestAlg', 'BBDTSimpleTool', 'BBDecTreeTool', 'BIntegrator', 'BTagging', 'BTaggingTool', 'BasicDQFilter', 'BdlTool', 'BeamGasVertexMonitor', 'BestPIDParticleMaker', 'BestPVAlg', 'BestPVAlg2', 'BremAdder', 'BremChi22ID', 'BremMatchAlg', 'BremPIDeAlg', 'CKThetaResolutionConfig', 'CLHEPSolver', 'CLTool', 'COOLConfSvc', 'CPUCruncher', 'CallgrindProfile', 'Calo2Calo', 'Calo2MCTool', 'CaloAdcFromRaw', 'CaloAlignmentNtp', 'CaloAssociatorsConf', 'CaloBremMatch', 'CaloChi22ID', 'CaloClusterChecker', 'CaloClusterCorrect3x3Position', 'CaloClusterCovarianceAlg', 'CaloClusterMCTruth', 'CaloClusterMatchMonitor', 'CaloClusterMonitor', 'CaloClusterizationTool', 'CaloCorrectionBase', 'CaloCosmicsTool', 'CaloCosmicsTrackAlg', 'CaloCosmicsTrackTool', 'CaloDataProvider', 'CaloDataProviderFromTES', 'CaloDetTestAlgorithm', 'CaloDigit2MCLinks2Table', 'CaloDigitConf', 'CaloDigitFilterAlg', 'CaloDigitFilterTool', 'CaloDigitMCTruth', 'CaloDigitMonitor', 'CaloDigitsFilterAlg', 'CaloDigitsFromRaw', 'CaloDstPackConf', 'CaloDstUnPackConf', 'CaloECorrection', 'CaloEFlowAlg', 'CaloEMuPIDMon', 'CaloElectron', 'CaloElectronAlg', 'CaloElectronMatch', 'CaloElectronNtp', 'CaloEnergyForTrack', 'CaloEnergyFromRaw', 'CaloExtraDigits', 'CaloFillPrsSpdRawBuffer', 'CaloFillRawBuffer', 'CaloGECFilter', 'CaloGetterInit', 'CaloGetterTool', 'CaloHypo2Calo', 'CaloHypoAlg', 'CaloHypoEstimator', 'CaloHypoMCTruth', 'CaloHypoMatchMonitor', 'CaloHypoMonitor', 'CaloHypoNtp', 'CaloID2DLL', 'CaloL0DataProvider', 'CaloLCorrection', 'CaloLines', 'CaloMergeTAE', 'CaloMergedPi0', 'CaloMoniDstConf', 'CaloPIDsChecker', 'CaloPIDsConf', 'CaloPhotonChecker', 'CaloPhotonIdAlg', 'CaloPhotonMatch', 'CaloPi0Checker', 'CaloPi0Monitor', 'CaloPi0Ntp', 'CaloProcessor', 'CaloProtoElectronMonitor', 'CaloReCreateMCLinks', 'CaloReadoutTool', 'CaloRecoConf', 'CaloRelationsGetter', 'CaloSCorrection', 'CaloSelectChargedClusterWithSpd', 'CaloSelectCluster', 'CaloSelectClusterWithPrs', 'CaloSelectNeutralClusterWithSpd', 'CaloSelectNeutralClusterWithTracks', 'CaloSelector', 'CaloSelectorAND', 'CaloSelectorNOT', 'CaloSelectorOR', 'CaloSharedCellAlg', 'CaloShowerOverlap', 'CaloShowerOverlapTool', 'CaloSinglePhotonAlg', 'CaloTrack2IDAlg', 'CaloTriggerAdcsFromCaloRaw', 'CaloTriggerAdcsFromRaw', 'CaloTriggerAdcsFromRawAlg', 'CaloTriggerBitsFromRaw', 'CaloTriggerBitsFromRawAlg', 'CaloZSupAlg', 'CellularAutomatonAlg', 'Centipede', 'ChargedParticlesToTracks', 'ChargedProtoANNPIDConf', 'ChargedProtoCombineDLLsAlg', 'ChargedProtoParticleAddBremInfo', 'ChargedProtoParticleAddEcalInfo', 'ChargedProtoParticleAddHcalInfo', 'ChargedProtoParticleAddMuonInfo', 'ChargedProtoParticleAddPrsInfo', 'ChargedProtoParticleAddRichInfo', 'ChargedProtoParticleAddSpdInfo', 'ChargedProtoParticleAddVeloInfo', 'ChargedProtoParticleDLLFilter', 'ChargedProtoParticleMaker', 'ChargedProtoParticleMapper', 'ChargedProtoParticleMoni', 'ChargedProtoParticleRemovePIDInfo', 'ChargedProtoParticleTupleAlg', 'CheatedPrimaryVertices', 'CheckCaloBank', 'CheckCaloHypoRef', 'CheckMCEventTool', 'CheckOverlap', 'CheckPV', 'CheckSelResult', 'CheckSelResultsTool', 'CheckVeloOverlap', 'Chi2MuIDTool', 'ChronoAuditor', 'ChronoStatSvc', 'CleanPatTrackSelector', 'ClearDaughters', 'ClusChi22ID', 'ClusterCovarianceMatrixTool', 'ClusterSpreadTool', 'CollectionCloneAlg', 'ColorMsgAlg', 'CombineParticles', 'CombineTaggersNN', 'CombineTaggersOSTDR', 'CombineTaggersPID', 'CombineTaggersProbability', 'CombineTaggersTDR', 'CombinedParticleMaker', 'CommonMuonHitManager', 'CommonMuonTool', 'CompareCaloDigits', 'CompareCaloHypo', 'CompareMCParticle', 'CompareMCVertex', 'CompareProtoParticle', 'CompareRecVertex', 'CompareTrack', 'CompareTwoProngVertex', 'CondDB', 'CondDBAccessSvc', 'CondDBCnvSvc', 'CondDBDQScanner', 'CondDBDispatcherSvc', 'CondDBEntityResolver', 'CondDBLayeringSvc', 'CondDBLogger', 'CondDBReplayAlg', 'CondDBSQLiteCopyAccSvc', 'CondDBTimeSwitchSvc', 'ConeJetProxyFilter', 'ConeVariables', 'ConeVariablesForEW', 'ConfigCDBAccessSvc', 'ConfigDBAccessSvc', 'ConfigFileAccessSvc', 'ConfigStackAccessSvc', 'ConfigTarFileAccessSvc', 'ConfigZipFileAccessSvc', 'ConjugateNeutralPID', 'ContextEventCounterData', 'ContextEventCounterPtr', 'ConversionDODMapper', 'CountParticles', 'CountVeloTracks', 'CounterAlg', 'CounterLevel', 'CounterSvc', 'CountingPrescaler', 'CpuHungryAlg', 'CreateFastTrackCollection', 'DAQEventTests__ByteStreamTests', 'DAQEventTests__DummyRawEventCreator', 'DDDBConf', 'DLLMuonTool', 'DODBasicMapper', 'DQAcceptTool', 'DQFilter', 'DQFilterSvc', 'DToKPiTwoProng', 'DVFilter1', 'DVFilter2', 'DaVinciInit', 'DaVinci__N3BodyDecays', 'DaVinci__N4BodyDecays', 'DaVinci__N5BodyDecays', 'DaVinci__N6BodyDecays', 'DaVinci__N7BodyDecays', 'DaVinci__N8BodyDecays', 'DaVinci__ParticleTransporter', 'DataCreator', 'DataObjectVersionFilter', 'DataOnDemandSvc', 'DataPacking__Check_LHCb__CaloClusterPacker_', 'DataPacking__Check_LHCb__FlavourTagPacker_', 'DataPacking__Check_LHCb__MCBcmHitPacker_', 'DataPacking__Check_LHCb__MCBlsHitPacker_', 'DataPacking__Check_LHCb__MCEcalHitPacker_', 'DataPacking__Check_LHCb__MCFTHitPacker_', 'DataPacking__Check_LHCb__MCHCHitPacker_', 'DataPacking__Check_LHCb__MCHcalHitPacker_', 'DataPacking__Check_LHCb__MCITHitPacker_', 'DataPacking__Check_LHCb__MCMuonHitPacker_', 'DataPacking__Check_LHCb__MCOTHitPacker_', 'DataPacking__Check_LHCb__MCPrsHitPacker_', 'DataPacking__Check_LHCb__MCPuVetoHitPacker_', 'DataPacking__Check_LHCb__MCRichDigitSummaryPacker_', 'DataPacking__Check_LHCb__MCRichHitPacker_', 'DataPacking__Check_LHCb__MCRichOpticalPhotonPacker_', 'DataPacking__Check_LHCb__MCRichSegmentPacker_', 'DataPacking__Check_LHCb__MCRichTrackPacker_', 'DataPacking__Check_LHCb__MCSLHitPacker_', 'DataPacking__Check_LHCb__MCSpdHitPacker_', 'DataPacking__Check_LHCb__MCTTHitPacker_', 'DataPacking__Check_LHCb__MCUTHitPacker_', 'DataPacking__Check_LHCb__MCVPHitPacker_', 'DataPacking__Check_LHCb__MCVeloHitPacker_', 'DataPacking__Check_LHCb__MuonPIDPacker_', 'DataPacking__Check_LHCb__ParticlePacker_', 'DataPacking__Check_LHCb__RelatedInfoRelationsPacker_', 'DataPacking__Check_LHCb__RichPIDPacker_', 'DataPacking__Check_LHCb__VertexPacker_', 'DataPacking__Check_LHCb__WeightsVectorPacker_', 'DataPacking__Pack_LHCb__CaloClusterPacker_', 'DataPacking__Pack_LHCb__FlavourTagPacker_', 'DataPacking__Pack_LHCb__MCBcmHitPacker_', 'DataPacking__Pack_LHCb__MCBlsHitPacker_', 'DataPacking__Pack_LHCb__MCEcalHitPacker_', 'DataPacking__Pack_LHCb__MCFTHitPacker_', 'DataPacking__Pack_LHCb__MCHCHitPacker_', 'DataPacking__Pack_LHCb__MCHcalHitPacker_', 'DataPacking__Pack_LHCb__MCITHitPacker_', 'DataPacking__Pack_LHCb__MCMuonHitPacker_', 'DataPacking__Pack_LHCb__MCOTHitPacker_', 'DataPacking__Pack_LHCb__MCPrsHitPacker_', 'DataPacking__Pack_LHCb__MCPuVetoHitPacker_', 'DataPacking__Pack_LHCb__MCRichDigitSummaryPacker_', 'DataPacking__Pack_LHCb__MCRichHitPacker_', 'DataPacking__Pack_LHCb__MCRichOpticalPhotonPacker_', 'DataPacking__Pack_LHCb__MCRichSegmentPacker_', 'DataPacking__Pack_LHCb__MCRichTrackPacker_', 'DataPacking__Pack_LHCb__MCSLHitPacker_', 'DataPacking__Pack_LHCb__MCSpdHitPacker_', 'DataPacking__Pack_LHCb__MCTTHitPacker_', 'DataPacking__Pack_LHCb__MCUTHitPacker_', 'DataPacking__Pack_LHCb__MCVPHitPacker_', 'DataPacking__Pack_LHCb__MCVeloHitPacker_', 'DataPacking__Pack_LHCb__MuonPIDPacker_', 'DataPacking__Pack_LHCb__ParticlePacker_', 'DataPacking__Pack_LHCb__RelatedInfoRelationsPacker_', 'DataPacking__Pack_LHCb__RichPIDPacker_', 'DataPacking__Pack_LHCb__VertexPacker_', 'DataPacking__Pack_LHCb__WeightsVectorPacker_', 'DataPacking__Unpack_LHCb__CaloClusterPacker_', 'DataPacking__Unpack_LHCb__FlavourTagPacker_', 'DataPacking__Unpack_LHCb__MCBcmHitPacker_', 'DataPacking__Unpack_LHCb__MCBlsHitPacker_', 'DataPacking__Unpack_LHCb__MCEcalHitPacker_', 'DataPacking__Unpack_LHCb__MCFTHitPacker_', 'DataPacking__Unpack_LHCb__MCHCHitPacker_', 'DataPacking__Unpack_LHCb__MCHcalHitPacker_', 'DataPacking__Unpack_LHCb__MCITHitPacker_', 'DataPacking__Unpack_LHCb__MCMuonHitPacker_', 'DataPacking__Unpack_LHCb__MCOTHitPacker_', 'DataPacking__Unpack_LHCb__MCPrsHitPacker_', 'DataPacking__Unpack_LHCb__MCPuVetoHitPacker_', 'DataPacking__Unpack_LHCb__MCRichDigitSummaryPacker_', 'DataPacking__Unpack_LHCb__MCRichHitPacker_', 'DataPacking__Unpack_LHCb__MCRichOpticalPhotonPacker_', 'DataPacking__Unpack_LHCb__MCRichSegmentPacker_', 'DataPacking__Unpack_LHCb__MCRichTrackPacker_', 'DataPacking__Unpack_LHCb__MCSLHitPacker_', 'DataPacking__Unpack_LHCb__MCSpdHitPacker_', 'DataPacking__Unpack_LHCb__MCTTHitPacker_', 'DataPacking__Unpack_LHCb__MCUTHitPacker_', 'DataPacking__Unpack_LHCb__MCVPHitPacker_', 'DataPacking__Unpack_LHCb__MCVeloHitPacker_', 'DataPacking__Unpack_LHCb__MuonPIDPacker_', 'DataPacking__Unpack_LHCb__ParticlePacker_', 'DataPacking__Unpack_LHCb__RelatedInfoRelationsPacker_', 'DataPacking__Unpack_LHCb__RichPIDPacker_', 'DataPacking__Unpack_LHCb__VertexPacker_', 'DataPacking__Unpack_LHCb__WeightsVectorPacker_', 'DataStreamTool', 'DataSvcFileEntriesTool', 'DeCaloCalib', 'DeCaloTiming', 'DeFTTestAlg', 'DebugTrackingLosses', 'DecayFinder', 'DecodePileUpData', 'DecodeRawEvent', 'DecodeSimpleDecayString', 'DecodeVeloFullRawBuffer', 'DecodeVeloRawBuffer', 'DelegatingTrackSelector', 'Derivatives', 'DetCondTest__DQScanTest', 'DetCondTest__FinalizationEvtLoop', 'DetCondTest__TestConditionAlg', 'DetCondTest__bug_80076', 'DetDataSvc', 'DetDesc__CheckOverlap', 'DetDesc__MaterialBudget', 'DetDesc__VolumeCheck', 'DetElemFinder', 'DetPersistencySvc', 'DetailedMaterialLocator', 'DeterministicPrescaler', 'DiElectronMaker', 'DiagSolvTool', 'DigiConf', 'DirectionFitter', 'DistMuIDTool', 'DoubleTagging', 'DoubleTopoTool', 'DownstreamGhostClassification', 'DstConf', 'DumpFSR', 'DumpHepMC', 'DumpHepMCDecay', 'DumpHepMCTree', 'DumpL0CaloBanks', 'DumpLumiEvents', 'DumpMCEventAlg', 'DumpTracks', 'EcalChi22ID', 'EcalEnergyForTrack', 'EcalPIDeAlg', 'EcalPIDmuAlg', 'ElectronMatchAlg', 'EmptyEventNodeCleaner', 'EqSolver', 'EqSolverGenAlg', 'EqSolverIAlg', 'EqSolverPAlg', 'ErrorLogTest', 'ErrorTool', 'Escher', 'EventAccounting', 'EventClockSvc', 'EventCollectionSelector', 'EventCountAlg', 'EventCountHisto', 'EventCounter', 'EventLoopMgr', 'EventNodeKiller', 'EventSelector', 'EventTimeMonitor', 'EvtCollectionStream', 'EvtCollectionWrite', 'EvtCounter', 'EvtDataSvc', 'EvtPersistencySvc', 'EvtTypeChecker', 'EvtTypeSvc', 'ExceptionSvc', 'ExtendedProperties', 'ExtrapolatorChecker', 'ExtrapolatorCheckerNT', 'FPEAuditor', 'FSRCleaner', 'FSRNavigator', 'FTHitExpectation', 'FTMeasurementProvider', 'FTRawBankDecoder', 'FTRawBankEncoder', 'FakeEventTime', 'FastForwardTool', 'FastFwdTool', 'FastL0DUFilter', 'FastMomentumEstimate', 'FastPVFinder', 'FastPVMonitor', 'FastVeloFitLHCbIDs', 'FastVeloHitManager', 'FastVeloTracking', 'FileIdBankWriter', 'FileMgr', 'FileMgrTest', 'FileReadTool', 'FileRecordDataSvc', 'FileStagerSvc', 'FilterByBankType', 'FilterByRunEvent', 'FilterDecays', 'FilterDesktop', 'FilterDownstreamTracks', 'FilterEventList', 'FilterFillingScheme', 'FilterInTrees', 'FilterJet', 'FilterMatchTracks', 'FilterOnLumiSummary', 'FilterSeedTracks', 'FilterStream', 'FindCloneTool', 'FitDecayTrees', 'FitTool', 'FlagHitsForPatternReco', 'FlagSignalChain', 'FlavourTaggingConf', 'ForcedBDecayTool', 'ForwardSchedulerSvc', 'FuncMinimum', 'FuncMinimumGenAlg', 'FuncMinimumIAlg', 'FuncMinimumPAlg', 'FwdFitParams', 'GAlign', 'GammaPi0SeparationTool', 'GaudiAtomicSequencer', 'GaudiCommonTests', 'GaudiEx__QotdAlg', 'GaudiExamplesCommonConf', 'GaudiExamples__CounterSvcAlg', 'GaudiExamples__GaudiPPS', 'GaudiExamples__LoggingAuditor', 'GaudiExamples__StatSvcAlg', 'GaudiExamples__TimingAlg', 'GaudiHistoAlgorithm', 'GaudiParallelizer', 'GaudiPersistency', 'GaudiSequencer', 'GaudiSvcTest__CounterTestAlg', 'GaudiTesting__CustomIncidentAlg', 'GaudiTesting__DestructorCheckAlg', 'GaudiTesting__EvenEventsFilter', 'GaudiTesting__FailingSvc', 'GaudiTesting__GetDataObjectAlg', 'GaudiTesting__JIRA__GAUDI_1185', 'GaudiTesting__ListTools', 'GaudiTesting__OddEventsFilter', 'GaudiTesting__PluginService__Algorithm1', 'GaudiTesting__PrintMemoryUsage', 'GaudiTesting__PutDataObjectAlg', 'GaudiTesting__SignallingAlg', 'GaudiTesting__SleepyAlg', 'GaudiTesting__StopLoopAlg', 'GaudiTesting__SvcWithTool', 'Gaudi_Test_MySuperAlg', 'Gaudi__DataCopy', 'Gaudi__DataLink', 'Gaudi__DataRemove', 'Gaudi__Examples__ArrayProperties', 'Gaudi__Examples__BoostArrayProperties', 'Gaudi__Examples__CountSelectedTracks', 'Gaudi__Examples__CustomPropertiesAlg', 'Gaudi__Examples__EvtColAlg', 'Gaudi__Examples__ExtendedEvtCol', 'Gaudi__Examples__ExtendedProperties2', 'Gaudi__Examples__FloatDataConsumer', 'Gaudi__Examples__HistoProps', 'Gaudi__Examples__IntDataConsumer', 'Gaudi__Examples__IntDataProducer', 'Gaudi__Examples__IntToFloatData', 'Gaudi__Examples__MultiInput__DumpAddress', 'Gaudi__Examples__MultiInput__ReadAlg', 'Gaudi__Examples__MultiInput__WriteAlg', 'Gaudi__Examples__SelCreate', 'Gaudi__Examples__SelFilter', 'Gaudi__Examples__SelectTracks', 'Gaudi__Examples__StringKeyEx', 'Gaudi__Hive__FetchDataFromFile', 'Gaudi__IODataManager', 'Gaudi__IncidentFilter', 'Gaudi__IncidentVeto', 'Gaudi__MetaDataSvc', 'Gaudi__MultiFileCatalog', 'Gaudi__ParticlePropertySvc', 'Gaudi__RootCnvSvc', 'Gaudi__RootEvtSelector', 'Gaudi__RootPerfMonSvc', 'Gaudi__StagedIODataManager', 'Gaudi__Utils__SignalMonitorSvc', 'Gaudi__Utils__StopSignalHandler', 'GenFSRLog', 'GenFSRMerge', 'GenFSRRead', 'GenFSRStat', 'GenericParticle2PVRelator__p2PVWithIPChi2_OfflineDistanceCalculatorName_', 'GenericParticle2PVRelator__p2PVWithIPChi2_OnlineDistanceCalculatorName_', 'GenericParticle2PVRelator__p2PVWithIP_OfflineDistanceCalculatorName_', 'GenericParticle2PVRelator__p2PVWithIP_OnlineDistanceCalculatorName_', 'GetArrival', 'GetElementsToBeAligned', 'GetIntegratedLuminosity', 'GetLumiParameters', 'GlobalRecoChecks', 'GlobalRecoConf', 'Google__CPUProfiler', 'Google__HeapChecker', 'Google__HeapProfiler', 'GslErrorCount', 'GslErrorException', 'GslErrorPrint', 'GslSvc', 'HCDelayScan', 'HCDigitCorrector', 'HCDigitMonitor', 'HCDigitTuple', 'HCEventTuple', 'HCPedestalCorrection', 'HCRawBankDecoder', 'HCRawBankDecoderHlt', 'HcalEnergyForTrack', 'HcalPIDeAlg', 'HcalPIDmuAlg', 'HelloWorld', 'HepRndm__Engine_CLHEP__DRand48Engine_', 'HepRndm__Engine_CLHEP__DualRand_', 'HepRndm__Engine_CLHEP__HepJamesRandom_', 'HepRndm__Engine_CLHEP__Hurd160Engine_', 'HepRndm__Engine_CLHEP__Hurd288Engine_', 'HepRndm__Engine_CLHEP__MTwistEngine_', 'HepRndm__Engine_CLHEP__RanecuEngine_', 'HepRndm__Engine_CLHEP__Ranlux64Engine_', 'HepRndm__Engine_CLHEP__RanluxEngine_', 'HepRndm__Engine_CLHEP__RanshiEngine_', 'HepRndm__Engine_CLHEP__TripleRand_', 'HighPtIsoLeptonAndTagPV', 'HighPtTopoTool', 'HistoAlgorithm', 'HistoTimingAlg', 'HistoTool', 'HistogramPersistencySvc', 'HistogramSvc', 'History', 'HistorySvc', 'HitEffPlotter', 'HiveReadAlgorithm', 'HiveSlimEventLoopMgr', 'HiveTestAlgorithm', 'HiveWhiteBoard', 'Hlt1TriggerTisTos', 'Hlt2TriggerTisTos', 'HltANNSvc', 'HltCaloPIDsConf', 'HltCaloRecoConf', 'HltCompositionMonitor', 'HltConfigSvc', 'HltDecReportsDecoder', 'HltDecReportsWriter', 'HltDiffHltDecReports', 'HltGenConfig', 'HltInsertTrackErrParam', 'HltJetBuilder', 'HltLumiSummaryDecoder', 'HltLumiWriter', 'HltPackedDataDecoder', 'HltPackedDataWriter', 'HltParticleFlow', 'HltRateMonitor', 'HltRawDataMonitor', 'HltRoutingBitsFilter', 'HltRoutingBitsWriter', 'HltSelReportsDecoder', 'HltSelReportsWriter', 'HltTrackConverter', 'HltTrackReportsDecoder', 'HltTrackReportsWriter', 'HltV0Upgrade', 'HltVertexReportsDecoder', 'HltVertexReportsWriter', 'IOBoundAlgSchedulerSvc', 'IOFSRSvc', 'IOTest', 'ITClusterOccupancy', 'ITDigitOccupancy', 'ITGenericTracking', 'ITHitExpectation', 'ITIsolatedTrackSelector', 'ITReadoutTool', 'ITTrackConfirmation', 'ITTrackMonitor', 'ITTrackSelector', 'IdealStateCreator', 'IdealTracksCreator', 'InBremAcceptance', 'InBremAcceptanceAlg', 'InCaloAcceptance', 'InCaloAcceptanceAlg', 'InEcalAcceptance', 'InEcalAcceptanceAlg', 'InHcalAcceptance', 'InHcalAcceptanceAlg', 'InPrsAcceptance', 'InPrsAcceptanceAlg', 'InSpdAcceptance', 'InSpdAcceptanceAlg', 'IncidentAsyncTestAlg', 'IncidentAsyncTestSvc', 'IncidentListenerTestAlg', 'IncidentProcAlg', 'IncidentSvc', 'InertMessageSvc', 'InputCopyStream', 'IntelProfilerAuditor', 'InternalVeloCluster2MCHitLinker', 'IoComponentMgr', 'IsMuonCandidateC', 'IssueLogger', 'JemallocProfile', 'JemallocProfileSvc', 'Jets2JetsAlg', 'JobOptionsSvc', 'KsFitParams', 'L0Calo2CaloTool', 'L0CaloAlg', 'L0CaloCandidatesFromRaw', 'L0CaloCandidatesFromRawBank', 'L0CaloCheckCalibCte', 'L0CaloCompare', 'L0CaloMonit', 'L0CaloNtpMonitor', 'L0CaloPRSResetMonitor', 'L0CaloScale', 'L0CaloToMCParticleAsct', 'L0CondDBProvider', 'L0Conf', 'L0DUAlg', 'L0DUConfigProvider', 'L0DUEmulatorTool', 'L0DUFromRawAlg', 'L0DUFromRawHlt1Tool', 'L0DUFromRawTool', 'L0DUMultiConfigProvider', 'L0DUMultiTrends', 'L0DURawBankMonitor', 'L0DUReportMonitor', 'L0DataFilter', 'L0DataNtp', 'L0DecReportsMaker', 'L0ETC', 'L0Filter', 'L0MuonAlg', 'L0MuonAlgComparison', 'L0MuonAsymMonitor', 'L0MuonCandHistos', 'L0MuonCandidatesFromRaw', 'L0MuonChannelsHistos', 'L0MuonErrorHistos', 'L0MuonFromRawTrans', 'L0MuonInfoHistos', 'L0MuonInputTool', 'L0MuonModifyInputTool', 'L0MuonMonitor', 'L0MuonMonitorCandidates', 'L0MuonMonitorData', 'L0MuonMonitorError', 'L0MuonMonitorInput', 'L0MuonMonitorProcessing', 'L0MuonMuonComp', 'L0MuonOLErrorTool', 'L0MuonOnlineMonitor', 'L0MuonOptLinksHistos', 'L0MuonOutputs', 'L0MuonOverflowTool', 'L0MuonPadsHistos', 'L0Pattern', 'L0ProcessorDataDecoder', 'L0SelReportsMaker', 'L0TCKfilter', 'L0TriggerTisTos', 'LHCbAlgsTest__CreateFakeRecHeader', 'LHCbAlgsTest__PrintEventTime', 'LHCbAlgsTest__ServiceStarter', 'LHCbAlgsTests__CopyFileAlg', 'LHCbAlgsTests__ODINBadTimeTest', 'LHCbAlgsTests__RunChangeTest', 'LHCbAlgsTests__TestEventCounter', 'LHCbAlgsTests__TestTimeDecoderOdin', 'LHCbApp', 'LHCbConfigurableUser', 'LHCbFSRStream', 'LHCbIDsToMCHits', 'LHCbIDsToMCParticles', 'LHCbOutputStream', 'LHCbRecordStream', 'LHCbSequencerTimerTool', 'LHCbTests__GenericTool__Algorithm', 'LHCbTests__GenericTool__MyGenericTSTool', 'LHCbTests__GenericTool__MyGenericTool', 'LHCbTimingAuditor', 'LHCb__Example__PartPropAlg', 'LHCb__MDFSelector', 'LHCb__MDFWriter', 'LHCb__MDFWriterLite', 'LHCb__MEPDump', 'LHCb__MEPTester', 'LHCb__MEPWriter', 'LHCb__MIFSelector', 'LHCb__MIFWriter', 'LHCb__ParticlePropertySvc', 'LHCb__RawDataCnvSvc', 'LHCb__RawDataWriter', 'LHCb__RawEventCopy', 'LHCb__RawEventTestCreator', 'LHCb__RawEventTestDump', 'LHCb__TAETestCreator', 'LLTCaloAlg', 'LSAdaptPV3DFitter', 'LSAdaptPVFitter', 'LandauTest', 'LbAppInit', 'LoKiSvc', 'LoKi__BDTTag', 'LoKi__CheckOverlap', 'LoKi__CounterAlg', 'LoKi__Decay', 'LoKi__DecayNode', 'LoKi__DecayTreeFit', 'LoKi__DirectionFitter', 'LoKi__DistanceCalculator', 'LoKi__DumpHepMC', 'LoKi__DumpMC', 'LoKi__ElectronTag', 'LoKi__FakeReFitter', 'LoKi__FastJetMaker', 'LoKi__FastJetWithAreaMaker', 'LoKi__FastVertexFitter', 'LoKi__GenDecay', 'LoKi__GenFilter', 'LoKi__HDRFilter', 'LoKi__Hybrid__ArrayTupleTool', 'LoKi__Hybrid__CoreFactory', 'LoKi__Hybrid__DTFDict', 'LoKi__Hybrid__Dict2Tuple', 'LoKi__Hybrid__DictOfFunctors', 'LoKi__Hybrid__DictTransform_BBDecTreeTransform_', 'LoKi__Hybrid__DictTransform_DummyTransform_', 'LoKi__Hybrid__DictTransform_MatrixnetTransform_', 'LoKi__Hybrid__DictTransform_TMVATransform_', 'LoKi__Hybrid__DictValue', 'LoKi__Hybrid__EvtTupleTool', 'LoKi__Hybrid__FilterCriterion', 'LoKi__Hybrid__FilterParticles', 'LoKi__Hybrid__GenTool', 'LoKi__Hybrid__HltFactory', 'LoKi__Hybrid__MCParticleSelector', 'LoKi__Hybrid__MCTool', 'LoKi__Hybrid__ParticleArrayFilter', 'LoKi__Hybrid__PlotTool', 'LoKi__Hybrid__PrintTool', 'LoKi__Hybrid__ProtoParticleFilter', 'LoKi__Hybrid__Tool', 'LoKi__Hybrid__TrackFunctorFactory', 'LoKi__Hybrid__TrackSelector', 'LoKi__Hybrid__TupleTool', 'LoKi__IPTag', 'LoKi__JetMaker', 'LoKi__JetMakerWR2Vtx', 'LoKi__JetParticleMaker', 'LoKi__L0Filter', 'LoKi__LifetimeFitter', 'LoKi__MCDecay', 'LoKi__MCFilter', 'LoKi__MassFitter', 'LoKi__MuonTag', 'LoKi__NNBTag', 'LoKi__ODINFilter', 'LoKi__PFJetMaker', 'LoKi__PIDTest', 'LoKi__PVReFitter', 'LoKi__ParticleClassificator', 'LoKi__PrintDecay', 'LoKi__Reporter', 'LoKi__SVTag', 'LoKi__SeedConeJetMaker', 'LoKi__SeedFinder', 'LoKi__SeedFinderNTrks', 'LoKi__SmartParticleCombiner', 'LoKi__SpecialValue', 'LoKi__TopoTag', 'LoKi__TopoTagDir', 'LoKi__TrgDistanceCalculator', 'LoKi__VVSeedFinder', 'LoKi__VertexFitter', 'LoKi__VoidFilter', 'LoadDDDB', 'LongGhostClassification', 'LongTrackReferenceCreator', 'LoopAlg', 'LumiAccounting', 'LumiAlgsConf', 'LumiCheckCondDB', 'LumiEventTuple', 'LumiFileReader', 'LumiIntegrateFSR', 'LumiIntegrator', 'LumiMergeFSR', 'LumiReadBackFSR', 'MCDecayFinder', 'MCEventTypeFinder', 'MCHitMonitor', 'MCOTDepositMonitor', 'MCOTTimeMonitor', 'MCParticle2MCHitAlg', 'MCParticleSelector', 'MCReconstructible', 'MCSTDepositMonitor', 'MCSTDigitMonitor', 'MCVeloFEType', 'MVAManager', 'MagFieldReader', 'MagneticFieldSvc', 'MakeMuonMeasurements', 'MakeMuonTool', 'MakeMuonTracks', 'MapAlg', 'MatchFitParams', 'MeasureIPResolution', 'MeasurementProvider', 'MeasurementProviderT_MeasurementProviderTypes__ITLite_', 'MeasurementProviderT_MeasurementProviderTypes__IT_', 'MeasurementProviderT_MeasurementProviderTypes__TTLite_', 'MeasurementProviderT_MeasurementProviderTypes__TT_', 'MeasurementProviderT_MeasurementProviderTypes__UTLite_', 'MeasurementProviderT_MeasurementProviderTypes__UT_', 'MeasurementProviderT_MeasurementProviderTypes__VP_', 'MeasurementProviderT_MeasurementProviderTypes__VeloLitePhi_', 'MeasurementProviderT_MeasurementProviderTypes__VeloLiteR_', 'MeasurementProviderT_MeasurementProviderTypes__VeloPhi_', 'MeasurementProviderT_MeasurementProviderTypes__VeloR_', 'MemStatAuditor', 'MemoryAuditor', 'MemoryTool', 'MergedPi0Maker', 'MessageSvc', 'Millepede', 'MinimalEventLoopMgr', 'MisAlignAlg', 'MisAligner', 'MomentumCombiner', 'MoveRecVertexTracks', 'MuMonitor', 'MultiStoreSvc', 'MultipleMagneticFieldSvc', 'MuonChi2MatchTool', 'MuonClusterRec', 'MuonClusterTool', 'MuonCombRec', 'MuonCoord2MCParticleLink', 'MuonDAQTest', 'MuonDetPosTool', 'MuonDigit2MCParticleAlg', 'MuonDigitToRawBuffer', 'MuonFakeClustering', 'MuonFastHWTool', 'MuonFastPosTool', 'MuonHitDecode', 'MuonIDAlg', 'MuonIDAlgLite', 'MuonIDPlusAlg', 'MuonIDPlusTool', 'MuonInformation', 'MuonKalmanMatchTool', 'MuonMeasurementProvider', 'MuonNNetRec', 'MuonPIDChecker', 'MuonPIDsFromProtoParticlesAlg', 'MuonPad2MCTool', 'MuonPadFromCoord', 'MuonPadRec', 'MuonPadTest', 'MuonRawBuffer', 'MuonRead', 'MuonRec', 'MuonTAERec', 'MuonTTTrack', 'MuonTell1Config', 'MuonTileDigitInfo', 'MuonTimeCor', 'MuonTrackAligMonitor', 'MuonTrackMomRec', 'MuonTrackMonitorConf', 'MyAlgorithm', 'MyAudAlgorithm', 'MyAudTool', 'MyDataAlgorithm', 'MyGaudiAlgorithm', 'MyGaudiTool', 'MyTool', 'NBB2HHTriggerTool', 'NNetTool_MLP', 'NShared', 'NTupleAlgorithm', 'NTupleSvc', 'NameAuditor', 'Named1', 'NeutralCCChangePIDTool', 'NeutralIDTool', 'NeutralProtoPAlg', 'NeutralProtoParticleAddNeutralID', 'NewVeloRTracking', 'NewVeloSpaceTool', 'NoPIDsParticleMaker', 'NumberOfTracksFilter', 'ODINDecodeTool', 'ODINEncodeTool', 'ODINTimeFilter', 'OTCalibrationAlg', 'OTCalibrationIO', 'OTCalibrationIOTool', 'OTChannelMapTool', 'OTChannelMonitor', 'OTCoordinates', 'OTDoubleHitStudy', 'OTHitEfficiencyMonitor', 'OTHitExpectation', 'OTHitMultiplicityFilter', 'OTMCDepositLinker', 'OTMCHitLinker', 'OTMCParticleLinker', 'OTMeasurementProvider', 'OTModuleClbrAlg', 'OTModuleClbrMon', 'OTMonoLayerAlignment', 'OTMultiBXRawBankDecoder', 'OTMuonCosmicsMatching', 'OTRawBankDecoder', 'OTRawBankEncoder', 'OTReadOutWindow', 'OTTime2MCDepositLinker', 'OTTime2MCHitLinker', 'OTTime2MCParticleLinker', 'OTTimeChecker', 'OTTimeClassification', 'OTTimeCreator', 'OTTimeMonitor', 'OTTrackMonitor', 'OTWriteConditionsToXml', 'OTWriteMonoAlignmentToXml', 'OTYAlignMagOff', 'OdinBCIDFilter', 'OdinTimeDecoder', 'OdinTypesFilter', 'OffLineCaloPIDsConf', 'OffLineCaloRecoConf', 'OfflineDeterministicPrescaler', 'OfflineRateLimiter', 'OfflineVertexFitter', 'OutputStream', 'PGPrimaryVertex', 'PVOfflineRecalculate', 'PVOfflineTool', 'PVReFitter', 'PVReFitterAlg', 'PVRelatorAlg', 'PVResMonitor', 'PVResolution', 'PVSeed3DOfflineTool', 'PVSeed3DTool', 'PVSeedTool', 'PVSplit', 'PVToRecConverter', 'PVTrackRemover', 'PackCaloHypo', 'PackCluster', 'PackDecReport', 'PackMCParticle', 'PackMCVertex', 'PackParticlesAndVertices', 'PackPrimaryVertices', 'PackProtoParticle', 'PackRecVertex', 'PackTrack', 'PackTwoProngVertex', 'ParentAlg', 'Part2Calo', 'PartPropExa', 'PartPropSvc', 'Particle2State', 'ParticleAdder', 'ParticleDescendants', 'ParticleFlow', 'ParticleFlow4Jets', 'ParticleStuffer', 'ParticleTisTos', 'ParticleToTrackContainer', 'ParticleTransporter', 'ParticleVeto', 'ParticlesAndVerticesMapper', 'PartitionSwitchAlg', 'PartitionSwitchTool', 'PatAddTTCoord', 'PatChecker', 'PatCheckerNTuple', 'PatCounter', 'PatDebugTTTruthTool', 'PatDebugTrackTool', 'PatDownstream', 'PatForward', 'PatForwardTool', 'PatFwdTool', 'PatKShortChecker', 'PatLHCbID2MCParticle', 'PatLongLivedParams', 'PatLongLivedTracking', 'PatMakeV0', 'PatMatch', 'PatMatchTool', 'PatPV3D', 'PatPVOffline', 'PatSeedFit', 'PatSeedTool', 'PatSeeding', 'PatSeedingTool', 'PatTStationDebugTool', 'PatTStationHitManager', 'PatTTCounter', 'PatTTMagnetTool', 'PatTTStationHitManager', 'PatTableForFunction', 'PatTrack2MCParticle', 'PatVeloDebugTool', 'PatVeloOpenTracking', 'PatVeloTT', 'PatVeloTTFit', 'PatVeloTTHybrid', 'PatVeloTTHybridTool', 'PatVeloTTTool', 'PerfMonAuditor', 'PersistencySvc', 'PhotonMaker', 'PhotonMakerAlg', 'PhotonMatchAlg', 'PhysConf', 'Pi0Veto__Filter', 'Pi0Veto__Tagger', 'Pi0Veto__Tagger2g', 'PitchResTool', 'PluginServiceTest__CustomFactoryAlgorithm', 'PluginServiceTest__MyAlg', 'PluginServiceTest__MyTemplatedAlg_intr_doublep_', 'PostScaler', 'PrAddUTHitsTool', 'PrCheatedSciFiTracking', 'PrCheatedVP', 'PrCheatedVelo', 'PrChecker', 'PrChecker2', 'PrClustersResidual', 'PrCounter', 'PrCounter2', 'PrDebugTrackingLosses', 'PrDebugUTTruthTool', 'PrDownstream', 'PrFTHitManager', 'PrFitFwdParams', 'PrFitKsParams', 'PrFitSeedParams', 'PrFitTool', 'PrForwardTool', 'PrForwardTracking', 'PrGeometryTool', 'PrHitDecoding', 'PrHybridSeeding', 'PrLHCbID2MCParticle', 'PrLongLivedTracking', 'PrMatch', 'PrMatchNN', 'PrMatchTool', 'PrMatchToolNN', 'PrPixelDebugTool', 'PrPixelHitManager', 'PrPixelMonitor', 'PrPixelStoreClusters', 'PrPixelTracking', 'PrPlotFTHits', 'PrTStationDebugTool', 'PrTTCounter', 'PrTableForFunction', 'PrTrackAssociator', 'PrUTMagnetTool', 'PrUTStationHitManager', 'PrVeloUT', 'PrVeloUTChecker', 'PrVeloUTTool', 'PreloadGeometryTool', 'PrepareVeloFullRawBuffer', 'PrepareVeloRawBuffer', 'Prescaler', 'PrimaryVertexChecker', 'PrintDecayTree', 'PrintDuplicates', 'PrintHeader', 'PrintMCDecayTreeAlg', 'PrintMCDecayTreeTool', 'PrintMCTree', 'ProcStatAbortMoni', 'ProcessPhase', 'PropagateFSRs', 'PropertimeFitter', 'PropertyAlg', 'PropertyConfigSvc', 'PropertyProxy', 'ProtoParticleANNPIDFilter', 'ProtoParticleCALOFilter', 'ProtoParticleDLLFilter', 'ProtoParticleMUONFilter', 'ProtoParticleRICHFilter', 'PrsEnergyForTrack', 'PrsPIDeAlg', 'PtTransporter', 'PuVetoAlg', 'PuVetoFillRawBuffer', 'PythonScriptingSvc', 'RandomNumberAlg', 'RateFromCondDB', 'RateFromTCK', 'RawBankReadoutStatusConverter', 'RawBankReadoutStatusFilter', 'RawBankReadoutStatusMonitor', 'RawBankSizeMonitor', 'RawBankToSTClusterAlg', 'RawBankToSTLiteClusterAlg', 'RawEventDump', 'RawEventFormatConf', 'RawEventJuggler', 'RawEventMapCombiner', 'RawEventSelectiveCopy', 'RawEventSimpleCombiner', 'ReadAlg', 'ReadHandleAlg', 'ReadPackedDst', 'ReadTES', 'RecEventTime', 'RecInit', 'RecMoniConf', 'RecProcessingTimeMoni', 'RecSummaryAlg', 'RecSysConf', 'RecToPVConverter', 'RecombineRawEvent', 'RecordDataSvc', 'RecordOutputStream', 'RecordStream', 'RelInfoConeIsolation', 'RelInfoConeVariables', 'RelInfoConeVariablesForEW', 'RelInfoCylVariables', 'RelInfoPFVariables', 'RelInfoVertexIsolation', 'RelInfoVertexIsolationDetached', 'RemoveClones', 'ReplayOutputStream', 'ReportCheckTool', 'ReportConvertTool', 'ResetHits', 'ResolvedPi0Maker', 'RichAlignmentConf', 'RichConfigurableUser', 'RichENNRingFinderConf', 'RichGlobalPIDConfig', 'RichPIDsFromProtoParticlesAlg', 'RichParticleSearchConf', 'RichPhotonCreatorConfig', 'RichPixelCreatorConfig', 'RichRecQCConf', 'RichRecSysBaseConf', 'RichRecSysConf', 'RichSegmentCreatorConf', 'RichTAEStruture', 'RichTemplateRingFinderConf', 'RichTools', 'RichTrackCreatorConfig', 'Rich__AddBackground', 'Rich__DAQ__DataDBCheck', 'Rich__DAQ__DataDecodingErrorMoni', 'Rich__DAQ__HPDPixelClusterSuppressionTool', 'Rich__DAQ__HPDPixelClusteringTool', 'Rich__DAQ__HighOccHPDSuppressionTool', 'Rich__DAQ__LoadRawEvent', 'Rich__DAQ__ODINMoni', 'Rich__DAQ__RawBufferToRichDigitsAlg', 'Rich__DAQ__RawBufferToSmartIDsTool', 'Rich__DAQ__RawDataFormatTool', 'Rich__DAQ__RawDataSize', 'Rich__DetParameters', 'Rich__DetectorTool', 'Rich__Future__DAQ__HighOccHPDSuppressionTool', 'Rich__Future__DetParameters', 'Rich__Future__DetectorTool', 'Rich__Future__MC__TrackToMCParticleRelations', 'Rich__Future__MirrorSegFinderLookUpTable', 'Rich__Future__ParticleProperties', 'Rich__Future__RadiatorTool', 'Rich__Future__RawBankDecoder', 'Rich__Future__RayTracing', 'Rich__Future__Rec__CKEstiFromRadiusPhotonReco', 'Rich__Future__Rec__DetailedTrSegMakerFromTracks', 'Rich__Future__Rec__DetectablePhotonYields', 'Rich__Future__Rec__EmittedPhotonYields', 'Rich__Future__Rec__GeomEffCKMassRings', 'Rich__Future__Rec__GlobalPID__InitialisePIDInfo', 'Rich__Future__Rec__GlobalPID__LikelihoodMinimiser', 'Rich__Future__Rec__GlobalPID__WriteRichPIDs', 'Rich__Future__Rec__MC__Moni__PIDQC', 'Rich__Future__Rec__MC__Moni__PhotonCherenkovAngles', 'Rich__Future__Rec__MergeRichPIDs', 'Rich__Future__Rec__Moni__DecodingErrors', 'Rich__Future__Rec__Moni__DetectorHits', 'Rich__Future__Rec__Moni__PhotonCherenkovAngles', 'Rich__Future__Rec__Moni__PixelClusters', 'Rich__Future__Rec__Moni__RecoStats', 'Rich__Future__Rec__Moni__TrackSelEff', 'Rich__Future__Rec__PhotonPredictedPixelSignal', 'Rich__Future__Rec__PixelBackgroundsEstiAvHPD', 'Rich__Future__Rec__PixelClusterGlobalPositions', 'Rich__Future__Rec__PixelClusterLocalPositions', 'Rich__Future__Rec__QuarticPhotonReco', 'Rich__Future__Rec__RayTraceCherenkovCones', 'Rich__Future__Rec__RayTraceTrackGlobalPoints', 'Rich__Future__Rec__RayTraceTrackLocalPoints', 'Rich__Future__Rec__RecoSummary', 'Rich__Future__Rec__SelectTrackSegments', 'Rich__Future__Rec__SignalPhotonYields', 'Rich__Future__Rec__TrackEmittedCherenkovAngles', 'Rich__Future__Rec__TrackFilter', 'Rich__Future__Rec__TrackFunctionalCherenkovResolutions', 'Rich__Future__Rec__TrackSignalCherenkovAngles', 'Rich__Future__SmartIDClustering', 'Rich__Future__SmartIDTool', 'Rich__Future__TabulatedRefractiveIndex', 'Rich__HPDAnalysisAlg', 'Rich__HPDHotPixelFinder', 'Rich__HPDImage__Summary', 'Rich__HPDOccupancyTool', 'Rich__MC__MCCKPhotonPropAlg', 'Rich__MC__MCCKPhotonYieldAlg', 'Rich__MC__MCTrackInfoTool', 'Rich__MC__MCTruthTool', 'Rich__MC__NULLMCTruthTool', 'Rich__MirrorSegFinder', 'Rich__MirrorSegFinderLookUpTable', 'Rich__Mon__HPDIonFeedbackMoni', 'Rich__ParticleProperties', 'Rich__RadiatorTool', 'Rich__RandomPixelBackgroundTool', 'Rich__RayTracing', 'Rich__RayTracingEigen', 'Rich__Rec__AdaptivePhotonReco', 'Rich__Rec__BackgroundEstiAvHPD', 'Rich__Rec__BackgroundEstiClustering', 'Rich__Rec__BaseTrackSelector', 'Rich__Rec__BinnedCKResVthetaForRecoTracks', 'Rich__Rec__CKthetaBandsPhotonPredictor', 'Rich__Rec__CherenkovAngle', 'Rich__Rec__ClearEvent', 'Rich__Rec__DataObjVerifier', 'Rich__Rec__DelegatedTrackCreatorFromRecoTracks', 'Rich__Rec__DetailedTrSegMakerFromRecoTracks', 'Rich__Rec__ENNRingFinder__Rich1AerogelBottomPanel', 'Rich__Rec__ENNRingFinder__Rich1AerogelTopPanel', 'Rich__Rec__ENNRingFinder__Rich1GasBottomPanel', 'Rich__Rec__ENNRingFinder__Rich1GasTopPanel', 'Rich__Rec__ENNRingFinder__Rich2GasLeftPanel', 'Rich__Rec__ENNRingFinder__Rich2GasRightPanel', 'Rich__Rec__EventSelection', 'Rich__Rec__EventSelectionAlg', 'Rich__Rec__ExpectedTrackSignal', 'Rich__Rec__FastTrSegMakerFromRecoTracks', 'Rich__Rec__FlippedDetailedTrSegMakerFromRecoTracks', 'Rich__Rec__ForwardTrackSelector', 'Rich__Rec__FunctionalCKResForRecoTracks', 'Rich__Rec__FunctionalRayleighScatter', 'Rich__Rec__GeomEffCKMassRing', 'Rich__Rec__GeomEffFixedValue', 'Rich__Rec__GeomEffPhotonTracing', 'Rich__Rec__GeomTool', 'Rich__Rec__GlobalPID__DigitSel', 'Rich__Rec__GlobalPID__Finalize', 'Rich__Rec__GlobalPID__Initialize', 'Rich__Rec__GlobalPID__Likelihood', 'Rich__Rec__GlobalPID__LikelihoodTool', 'Rich__Rec__GlobalPID__MC__Monitor', 'Rich__Rec__GlobalPID__MultiStepTool', 'Rich__Rec__GlobalPID__TrackCreator', 'Rich__Rec__GlobalPID__TrackSel', 'Rich__Rec__GlobalPID__TrackSelUsingPIDs', 'Rich__Rec__HPDFlashMoni', 'Rich__Rec__HPDHitsMoni', 'Rich__Rec__HierarchicalPIDMerge', 'Rich__Rec__Initialise', 'Rich__Rec__InterpCKResVthetaForRecoTracks', 'Rich__Rec__IsolatedTrackTool', 'Rich__Rec__KsTrackSelector', 'Rich__Rec__MC__AddMissingMCRichTracksAlg', 'Rich__Rec__MC__AlignmentMonitor', 'Rich__Rec__MC__CherenkovAngleMonitor', 'Rich__Rec__MC__CherenkovResMoni', 'Rich__Rec__MC__DumpRichHitsToTextFileAlg', 'Rich__Rec__MC__DumpRichTracksToTextFileAlg', 'Rich__Rec__MC__GhostTrackMoni', 'Rich__Rec__MC__MCMassHypoRingsAlg', 'Rich__Rec__MC__MCTrueTrackSelector', 'Rich__Rec__MC__MCTruthTool', 'Rich__Rec__MC__NULLMCTruthTool', 'Rich__Rec__MC__PIDQC', 'Rich__Rec__MC__PIDTupleAlg', 'Rich__Rec__MC__PhotonCreatorCheatedTrackDir', 'Rich__Rec__MC__PhotonCreatorFromMCRichOpticalPhotons', 'Rich__Rec__MC__PhotonCreatorWithGaussianCKSmear', 'Rich__Rec__MC__PhotonCreatorWithMCHitPosition', 'Rich__Rec__MC__PhotonCreatorWithMCSignal', 'Rich__Rec__MC__PhotonGeomMonitor', 'Rich__Rec__MC__PhotonPredictorUsingMCRichOpticalPhotons', 'Rich__Rec__MC__PhotonPredictorUsingMCTruth', 'Rich__Rec__MC__PhotonRayTraceTest', 'Rich__Rec__MC__PhotonRecoCompare', 'Rich__Rec__MC__PhotonRecoEffMonitor', 'Rich__Rec__MC__PhotonRecoRayTraceTest', 'Rich__Rec__MC__PhotonSignalMonitor', 'Rich__Rec__MC__PhotonTrajectoryMonitor', 'Rich__Rec__MC__PixelCreatorFromAllMCRichHits', 'Rich__Rec__MC__PixelCreatorFromCheatedRawBuffer', 'Rich__Rec__MC__PixelCreatorFromRichDigitsWithBg', 'Rich__Rec__MC__PixelCreatorFromSignalRawBuffer', 'Rich__Rec__MC__PixelPositionMonitor', 'Rich__Rec__MC__PixelQC', 'Rich__Rec__MC__PixelRecoEffMonitor', 'Rich__Rec__MC__RecoQC', 'Rich__Rec__MC__RichParticleSearchMain', 'Rich__Rec__MC__StereoPhotonFitTest', 'Rich__Rec__MC__SummaryCKResMoni', 'Rich__Rec__MC__SummaryQC', 'Rich__Rec__MC__TrSegMakerFromMCRichTracks', 'Rich__Rec__MC__TrackCreatorFromMCRichTracks', 'Rich__Rec__MC__TrackGeomMoni', 'Rich__Rec__MC__TrackResolutionMoni', 'Rich__Rec__MC__TrackSelEff', 'Rich__Rec__MC__TracklessRingMoni', 'Rich__Rec__MC__TruePhotonEmissionPoint', 'Rich__Rec__MassHypothesisRingCreator', 'Rich__Rec__MatchTrackSelector', 'Rich__Rec__NominalTabulatedSignalDetectionEff', 'Rich__Rec__PIDMerge', 'Rich__Rec__PIDPlots', 'Rich__Rec__PhotonCreator', 'Rich__Rec__PhotonEmissionPoint', 'Rich__Rec__PhotonPredictorUsingRings', 'Rich__Rec__PhotonRecoTestAlg', 'Rich__Rec__PhotonRecoUsingCKEstiFromRadius', 'Rich__Rec__PhotonRecoUsingQuarticSoln', 'Rich__Rec__PhotonRecoUsingRaytracing', 'Rich__Rec__PhotonSignalGaussProb', 'Rich__Rec__PhotonSignalJeffreysErf', 'Rich__Rec__PixelBackgroundAlg', 'Rich__Rec__PixelClusterMoni', 'Rich__Rec__PixelCreatorFromRawBuffer', 'Rich__Rec__PixelCreatorWithForcedIneffic', 'Rich__Rec__PixelCreatorWithPanelFlip', 'Rich__Rec__RayTraceCherenkovCone', 'Rich__Rec__RingPeakSearch', 'Rich__Rec__SeedTrackSelector', 'Rich__Rec__SegmentCreator', 'Rich__Rec__SellmeirFunc', 'Rich__Rec__SepVCKthetaPhotonPredictor', 'Rich__Rec__SimplePhotonPredictor', 'Rich__Rec__StatusCreator', 'Rich__Rec__StereoFitter', 'Rich__Rec__StereoProjection', 'Rich__Rec__SummaryAlg', 'Rich__Rec__TabulatedGasQuartzWindowAbs', 'Rich__Rec__TabulatedRayleighScatter', 'Rich__Rec__TabulatedSignalDetectionEff', 'Rich__Rec__TemplateRings__RichFFPlan', 'Rich__Rec__TemplateRings__RichLocalTargetConfig', 'Rich__Rec__TemplateRings__RichLocalTemplateConfig', 'Rich__Rec__TemplateRings__RichMCTruthAcquireAlg', 'Rich__Rec__TemplateRings__RichMCTruthData', 'Rich__Rec__TemplateRings__RichRingMCCompareNtup', 'Rich__Rec__TemplateRings__RichRingMasterAlg', 'Rich__Rec__TemplateRings__RichRingRecAlgBase', 'Rich__Rec__TemplateRings__RichRingRecConstants', 'Rich__Rec__TemplateRings__RichRingRecMass', 'Rich__Rec__TemplateRings__RichRingRecResult', 'Rich__Rec__TemplateRings__RichRingRecToolBase', 'Rich__Rec__TemplateRings__RichRingRecTransformTool', 'Rich__Rec__TemplateRings__RichRingRecTupleAlgBase', 'Rich__Rec__TemplateRings__RichRingReconParam', 'Rich__Rec__TemplateRings__RichSingleEvMonHistoTool', 'Rich__Rec__TemplateRings__RichTargetDataConfigAlg', 'Rich__Rec__TemplateRings__RichTargetDataTool', 'Rich__Rec__TemplateRings__RichTemplateDataTool', 'Rich__Rec__TimeMonitor', 'Rich__Rec__TrackCreatorFromRecoTracks', 'Rich__Rec__TrackCreatorFromRecoTracksWithForcedIneffic', 'Rich__Rec__TrackEffectiveRefractiveIndex', 'Rich__Rec__TrackPIDAlg', 'Rich__Rec__TrackRayTraceTest', 'Rich__Rec__TrackSelector', 'Rich__Rec__TracklessRingFilterAlg', 'Rich__Rec__TracklessRingIsolationAlg', 'Rich__Rec__TracklessRingSegmentAssociationAlg', 'Rich__Rec__VeloTTTrackSelector', 'Rich__SmartIDTool', 'Rich__SnellsLawRefraction', 'Rich__TabulatedRefractiveIndex', 'Rich__ToolRegistry', 'Rich__VaryGasPressureTemperatureAlg', 'RndmGenSvc', 'RootHistCnv__PersSvc', 'Run2GhostId', 'RunChangeHandlerSvc', 'RunRecordDataSvc', 'RunRecordStream', 'RunStampCheck', 'SCSAlg', 'STADCTrackMonitor', 'STBeetleStateTransition', 'STChannelIDSelectorAND', 'STChannelIDSelectorOR', 'STCluster2MCHitLinker', 'STCluster2MCParticleLinker', 'STClusterChecker', 'STClusterClassification', 'STClusterCollector', 'STClusterContainerCopy', 'STClusterCreator', 'STClusterKiller', 'STClusterResolution', 'STClusterSelectorAND', 'STClusterSelectorOR', 'STClusterTuple', 'STClustersToDigits', 'STClustersToLite', 'STClustersToRawBankAlg', 'STCoordinates', 'STCosmicFilter', 'STDQSummaryAlg', 'STDigit2MCHitLinker', 'STDigit2MCParticleLinker', 'STDigitMonitor', 'STDigitsMerge', 'STDigitsToSTTELL1Data', 'STDumpEvent', 'STDumpGeom', 'STEffChecker', 'STEfficiency', 'STErrorDecoding', 'STErrorMonitor', 'STEventMerge', 'STFullDecoding', 'STFullEventDump', 'STLayerSelector', 'STLiteClusterKiller', 'STNZSMonitor', 'STOfflinePosition', 'STOnlinePosition', 'STPedestalDecoding', 'STPerformanceMonitor', 'STPulseMonitor', 'STRawADCInfo', 'STRawBankMonitor', 'STRndmBeetleStateTransition', 'STRndmChannelIDSelector', 'STRndmEffSelector', 'STSelectByCharge', 'STSelectBySN', 'STSelectChannelIDByBoard', 'STSelectChannelIDByElement', 'STSelectChannelIDByServiceBox', 'STSelectChannelIDByStatus', 'STSelectChannelIDByTruth', 'STSelectChannelIDOnTrack', 'STSelectClustersByChannel', 'STSelectLadders17', 'STSelectSpilloverCluster', 'STSmearedPosition', 'STSpilloverTool', 'STStripChecker', 'STSummaryMonitor', 'STTrackTuple', 'STYAlignMagOff', 'ST__STActiveFraction', 'ST__STBadChannelFinder', 'ST__STCMSNoiseCalculationTool', 'ST__STClusterMonitor', 'ST__STDataSizeMonitor', 'ST__STDumpADCs', 'ST__STDumpClusters', 'ST__STLiteClusterMonitor', 'ST__STNoiseCalculation', 'ST__STNoiseCalculationTool', 'ST__STNoiseMonitor', 'ST__STOnlineNoiseCalculationTool', 'ST__STTAEClusterMonitor', 'ST__STTAEClusterTuple', 'SVertexNNTool', 'SVertexOneSeedTool', 'SVertexTool', 'SeedFitParams', 'SelectTrackInVertex', 'Sequencer', 'SequencerTimerTool', 'SequentialOutputStream', 'ServiceA', 'ServiceB', 'SiAmplifierResponse', 'SiDepositedCharge', 'SiGeantDepositedCharge', 'SiZuriFunction', 'SimConf', 'SimplePVFitter', 'SimplePVSeedTool', 'SimplifiedMaterialLocator', 'SmartVeloErrorBankDecoder', 'SolvExample', 'SparseSolver', 'SpdEnergyForTrack', 'SpdMonitor', 'SplitJets', 'SpmInvTool', 'StagedStreamTool', 'StalledEventMonitor', 'StandaloneMuonRec', 'StandardParticleProvider', 'StateDetailedBetheBlochEnergyCorrectionTool', 'StateElectronEnergyCorrectionTool', 'StateSimpleBetheBlochEnergyCorrectionTool', 'StateThickMSCorrectionTool', 'StateThinMSCorrectionTool', 'StatusCodeSvc', 'StopperAlg', 'StoreExplorerAlg', 'StoreSnifferAlg', 'SubAlg', 'SubClusterSelector2x2', 'SubClusterSelector3x3', 'SubClusterSelectorSwissCross', 'SubClusterSelectorTool', 'SubPIDMMFilter', 'SubstitutePID', 'SubstitutePIDTool', 'SurveyConstraints', 'Swimming', 'Swimming__PVReFitter', 'Swimming__Service', 'TAConfig', 'TAlgDB', 'TAlgIS', 'TAlignment', 'TBBMessageSvc', 'TCKANNSvc', 'TCKPrescaleEmulator', 'TESCheck', 'TESFingerPrint', 'TESMerger_LHCb__Particle_', 'TESMerger_LHCb__ProtoParticle_', 'TESMerger_LHCb__Track_', 'TESSelectionTisTos', 'TESTisTos', 'THistRead', 'THistSvc', 'THistWrite', 'TStation', 'TTClusterOccupancy', 'TTDigitOccupancy', 'TTGenericTracking', 'TTHitExpectation', 'TTReadoutTool', 'TTTrackMonitor', 'TTrackFromLong', 'TTrackGhostClassification', 'TagCollectionStream', 'TagCollectionSvc', 'TaggerCharmTool', 'TaggerElectronTool', 'TaggerJetSameTool', 'TaggerKaonOppositeTool', 'TaggerKaonSameTool', 'TaggerMuonTool', 'TaggerNEWKaonOppositeTool', 'TaggerNEWKaonSameTool', 'TaggerPionBDTSameTool', 'TaggerPionSameTool', 'TaggerProtonSameTool', 'TaggerVertexChargeTool', 'TaggingUtils', 'TemplatedAlg_double_bool_', 'TemplatedAlg_int_std__vector_std__string_std__allocator_std__string_s_s_', 'TeslaBrunelMonitor', 'TeslaMatcher', 'TeslaMonitor', 'TeslaReportAlgo', 'TestRecVertexHolder', 'TestTool', 'TestToolAlg', 'TestToolAlgFailure', 'TestToolFailing', 'Tf__AddPileupToTrack', 'Tf__DefaultVeloPhiHitManager', 'Tf__DefaultVeloRHitManager', 'Tf__HitManagersTestAlg', 'Tf__OTHitCleaner', 'Tf__OTHitCreator', 'Tf__PatVeloAlignTrackFilter', 'Tf__PatVeloFitLHCbIDs', 'Tf__PatVeloGeneralTracking', 'Tf__PatVeloGeneric', 'Tf__PatVeloLiteClusterPromoter', 'Tf__PatVeloPhiHitManager', 'Tf__PatVeloRHitManager', 'Tf__PatVeloRTracking', 'Tf__PatVeloResetClusterUsed', 'Tf__PatVeloSpaceTool', 'Tf__PatVeloSpaceTracking', 'Tf__PatVeloTrackTool', 'Tf__PatVeloTraversingTracking', 'Tf__STHitCleaner', 'Tf__STHitCreator_Tf__IT_', 'Tf__STHitCreator_Tf__TT_', 'Tf__STHitCreator_Tf__UT_', 'Tf__TStationHitManager_Tf__HitManagersTestAlg__TestHit_', 'Tf__TTStationHitManager_Tf__HitManagersTestAlg__TestHit_', 'Tf__TTStationHitManager_Tf__Tsa__SeedingHit_', 'Tf__Tsa__DataDebugAlg', 'Tf__Tsa__ITExpectedHits', 'Tf__Tsa__ITStereoSearch', 'Tf__Tsa__ITXSearch', 'Tf__Tsa__Likelihood', 'Tf__Tsa__OTExpectedHits', 'Tf__Tsa__OTStereoSearch', 'Tf__Tsa__OTXSearch', 'Tf__Tsa__Seed', 'Tf__Tsa__SeedAddHits', 'Tf__Tsa__SeedSelector', 'Tf__Tsa__SeedTrackCnv', 'Tf__Tsa__SeedTrackCnvTool', 'Tf__Tsa__StubExtender', 'Tf__Tsa__StubFind', 'Tf__Tsa__StubLinker', 'Tf__Tsa__TStationHitManager', 'Tf__Tsa__XProjSelector', 'ThreadPoolSvc', 'TimeAccounting', 'TimeDecoderList', 'TimelineSvc', 'TimingAuditor', 'TimingTool', 'TimingTuple', 'TisTos', 'TisTosParticleTagger', 'ToolSvc', 'TopologicalTagging', 'Track2Calo', 'Track2EcalEAlg', 'Track2HcalEAlg', 'Track2PrsEAlg', 'Track2SpdEAlg', 'TrackAddLikelihood', 'TrackAddNNGhostId', 'TrackAlignMonitor', 'TrackAssociator', 'TrackBestTrackCreator', 'TrackBuildCloneTable', 'TrackCaloMatch', 'TrackCaloMatchMonitor', 'TrackCheckerNT', 'TrackChi2Calculator', 'TrackCloneChecker', 'TrackCloneCleaner', 'TrackCloneFinder', 'TrackClusterFinder', 'TrackClustersMapper', 'TrackCompetition', 'TrackComputeExpectedHits', 'TrackContainerCleaner', 'TrackContainerCopy', 'TrackDiMuonMonitor', 'TrackDistanceExtraSelector', 'TrackDoubleHitPruner', 'TrackEffChecker', 'TrackEraseExtraInfo', 'TrackEventCloneKiller', 'TrackEventFitter', 'TrackExpectedHitsXYZTool', 'TrackFilterAlg', 'TrackFitMatchMonitor', 'TrackFromDST', 'TrackGhostClassificationBase', 'TrackHerabExtrapolator', 'TrackHitAdder', 'TrackHitCollector', 'TrackIPResolutionChecker', 'TrackIPResolutionCheckerNT', 'TrackITOverlapMonitor', 'TrackInitFit', 'TrackInterpolator', 'TrackKalmanFilter', 'TrackKiselExtrapolator', 'TrackLikelihood', 'TrackLinearExtrapolator', 'TrackListFilter', 'TrackListMerger', 'TrackListPrinter', 'TrackListRefiner', 'TrackMasterExtrapolator', 'TrackMasterFitter', 'TrackMon', 'TrackMonitor', 'TrackMonitorNT', 'TrackMultiplicityFilter', 'TrackMuonMatchMonitor', 'TrackMuonMatching', 'TrackMuonUpgradeAlg', 'TrackOTLRSignTool', 'TrackOccupChecker', 'TrackPV2HalfAlignMonitor', 'TrackPVRefitter', 'TrackParabolicExtrapolator', 'TrackParticleMonitor', 'TrackParticleRefitter', 'TrackPrepareForFit', 'TrackPrepareVelo', 'TrackProjector', 'TrackProjectorSelector', 'TrackPtKick', 'TrackRemoveDoubleHits', 'TrackRemoveOddOTClusters', 'TrackResChecker', 'TrackRungeKuttaExtrapolator', 'TrackSTEPExtrapolator', 'TrackSeedT0Alg', 'TrackSelector', 'TrackSimpleExtraSelector', 'TrackStateAdder', 'TrackStateInitAlg', 'TrackStateInitTool', 'TrackStateProvider', 'TrackStore', 'TrackSys', 'TrackTimingMonitor', 'TrackToDST', 'TrackToParticleRelinker', 'TrackTune', 'TrackUseCaloMomentumAlg', 'TrackUsedLHCbID', 'TrackV0Finder', 'TrackV0Monitor', 'TrackVeloOverlapMonitor', 'TrackVeloTTChecker', 'TrackVelodEdxCharge', 'TrackVertexMonitor', 'TrackVertexer', 'TrackerMCParticle2MCHitAlg', 'TrajOTCosmicsProjector', 'TrajOTProjector', 'TrajPoca', 'TrajProjector_FT_', 'TrajProjector_Muon_', 'TrajProjector_ST_', 'TrajProjector_VP_', 'TrajProjector_Velo_', 'TrajectoryProvider', 'TransportSvc', 'TrgVertexFitter', 'TriggerSelectionTisTos', 'TriggerSelectionTisTosSummary', 'TriggerTisTos', 'TriggerTisTosSummary', 'TriggerTypeCounter', 'TupleAlg', 'TupleAlg2', 'TupleAlg3', 'TupleTool', 'TurboConf', 'TurboPrescaler', 'UTHitExpectation', 'UTReadoutTool', 'UTTrackMonitor', 'UnpackCaloHypo', 'UnpackCluster', 'UnpackDecReport', 'UnpackMCParticle', 'UnpackMCVertex', 'UnpackParticlesAndVertices', 'UnpackPrimaryVertices', 'UnpackProtoParticle', 'UnpackRecVertex', 'UnpackTrack', 'UnpackTwoProngVertex', 'UpdateJetsWithVtx', 'UpdateManagerSvc', 'UpgradeBestTrackCreator', 'UpgradeGhostId', 'UpstreamGhostClassification', 'V0FromDstMaker', 'VAlign', 'VBVertexRequirement', 'VFSSvc', 'VPClusterLinker', 'VPClusterMonitor', 'VPClusterPosition', 'VPClustering', 'VPDigitLinker', 'VPExpectation', 'VPOccupancyMonitor', 'VPSuperPixelBankEncoder', 'VPTrackEff', 'VPTrackMonitor', 'VPTrackSelector', 'VeloAlignment', 'VeloCCEConfigTool', 'VeloCaloBuilder', 'VeloCluster2MCHitLinker', 'VeloCluster2MCParticleLinker', 'VeloClusterFilter', 'VeloClusterMaker', 'VeloClusterMoni', 'VeloClusterPosition', 'VeloClustersToDigits', 'VeloClustersToLite', 'VeloClustersToRaw', 'VeloDataProcessor', 'VeloDetChecker', 'VeloDigiMoni', 'VeloDigit2MCHitLinker', 'VeloDigit2MCParticleLinker', 'VeloDigitsMerge', 'VeloEffChecker', 'VeloExpectation', 'VeloGhostClassification', 'VeloMuonBuilder', 'VeloRGhostClassification', 'VeloRadDamageTool', 'VeloRawClustersMoni', 'VeloRecMonitors', 'VeloSim', 'VeloSimMoni', 'VeloSimTell1Algorithm', 'VeloSimTell1ClusterMaker', 'VeloTell1DataProcessor', 'VeloTrackSelector', 'VeloUpdateHighThreshold', 'Velo__LivDBTELL1SensorMap', 'Velo__PvssTell1Names', 'Velo__TimeStamps', 'Velo__VeloCCEScanMonitor', 'Velo__VeloClusterMonitor', 'Velo__VeloExpertClusterMonitor', 'Velo__VeloIPResolutionMonitor', 'Velo__VeloIPResolutionMonitorNT', 'Velo__VeloOccupancyMonitor', 'Velo__VeloSamplingMonitor', 'Velo__VeloTrackMonitor', 'Velo__VeloTrackMonitorNT', 'VertexChecker', 'VertexCompare', 'VertexIsolation', 'VertexListFilter', 'VertexListRefiner', 'VisPrimVertTool', 'WriteAlg', 'WriteAlignmentConditions', 'WriteAlignmentConditionsTool', 'WriteHandleAlg', 'WriteMultiAlignmentConditionsTool', 'WriteOTCalibrationsTool', 'WritePackedDst', 'WriteRichCalibrationsTool', 'WriteSTNoiseConditions', 'WriteSTStatusConditions', 'XMLSummary', 'XMLSummarySvc', 'XmlCnvSvc', 'XmlParserSvc', 'bJetSeeds', 'bankKiller', 'bug_34121__MyAlgorithm', 'bug_34121__Tool', 'createODIN', 'gslSVDsolver']
== failed ==
0
[]
== done ==
